{
    "_id" : ObjectId("5fe060991a2a2e0d008b456a"),
    "type" : "blockCms",
    "path" : "tpls.blockCms.filiereeducation.bannerHeader",
    "name" : "Banner header",
    "developpeur" : "true",
    "img" : "",
    "description" : "",
    "parent" : "",
    "created" : NumberLong(1608540313),
    "creator" : "5fd7946d1a2a2e0d008b456d"
}

{
    "_id" : ObjectId("5fe09b091a2a2e0f008b456a"),
    "type" : "blockCms",
    "path" : "tpls.blockCms.filiereeducation.elementwithsearch",
    "name" : "Element with search",
    "developpeur" : "true",
    "img" : "",
    "description" : "",
    "parent" : "",
    "created" : NumberLong(1608555273),
    "creator" : "5fd7946d1a2a2e0d008b456d"
}

{
    "_id" : ObjectId("5fe0a62e1a2a2e0e008b456a"),
    "type" : "blockCms",
    "path" : "tpls.blockCms.filiereeducation.blockwithminiblock",
    "name" : "block a de Mini block",
    "developpeur" : "true",
    "img" : "",
    "description" : "",
    "parent" : "",
    "created" : NumberLong(1608558126),
    "creator" : "5fd7946d1a2a2e0d008b456d"
}

{
    "_id" : ObjectId("5fe0a62e1a2a2e0e008b456a"),
    "type" : "blockCms",
    "path" : "tpls.blockCms.filiereeducation.agenda",
    "name" : "Filiere education agenda",
    "developpeur" : "true",
    "img" : "",
    "description" : "",
    "parent" : "",
    "created" : NumberLong(1608558126),
    "creator" : "5fd7946d1a2a2e0d008b456d"
}

{
    "_id" : ObjectId("5ff31a421a2a2e16008b456c"),
    "type" : "blockCms",
    "path" : "tpls.blockCms.filiereeducation.mapCostumized",
    "name" : "Map community Costumized",
    "developpeur" : "true",
    "img" : "",
    "description" : "",
    "parent" : "",
    "created" : NumberLong(1609767490),
    "creator" : "5fd7946d1a2a2e0d008b456d"
}

{
    "_id" : ObjectId("5ff31c601a2a2e19008b456c"),
    "type" : "blockCms",
    "path" : "tpls.blockCms.filiereeducation.actualite",
    "name" : "Actualite filiere education",
    "developpeur" : "true",
    "img" : "",
    "description" : "",
    "parent" : "",
    "created" : NumberLong(1609768032),
    "creator" : "5fd7946d1a2a2e0d008b456d"
}

{
    "_id" : ObjectId("5ff6b85d1a2a2e0d008b4569"),
    "type" : "blockCms",
    "path" : "tpls.blockCms.filiereeducation.projects",
    "name" : "Projet",
    "developpeur" : "true",
    "img" : "",
    "description" : "",
    "parent" : "",
    "created" : NumberLong(1610004573),
    "creator" : "5fd7946d1a2a2e0d008b456d"
}

//Zay fa ny ariane efa ao io