<?xml version="1.0" encoding="utf-8"?>
<!-- Generator: Adobe Illustrator 22.0.1, SVG Export Plug-In . SVG Version: 6.00 Build 0)  -->
<svg version="1.1" id="Calque_1" xmlns="http://www.w3.org/2000/svg" xmlns:xlink="http://www.w3.org/1999/xlink" x="0px" y="0px"
	 viewBox="0 0 1006 217" style="enable-background:new 0 0 1006 217;" xml:space="preserve">
<style type="text/css">
	.st0{fill:#FFFFFF;}
	.st1{fill:#9AC21E;}
</style>
<g>
	
		<image style="overflow:visible;opacity:0.29;" width="956" height="124" xlink:href="BD554E7F0366A2C6.png"  transform="matrix(1 0 0 1 20.4646 63.5639)">
	</image>
	<g>
		<polygon class="st0" points="943.5,117.4 922.2,80.5 908.1,80.5 879.6,80.4 77,80.4 77,80.5 58.9,80.5 37.5,117.4 58.9,154.4 
			77,154.4 77,154.5 737.5,154.5 879.6,154.4 922.2,154.4 		"/>
	</g>
</g>
<g>
	<polygon class="st1" points="921.7,80.2 878.5,80.2 857.8,116.7 879.4,154 922.6,154 944.2,116.7 	"/>
	<path class="st0" d="M919,116.9l-2.3-2.3l0,0l-6.3-6.3l-2.3,2.3l4.5,4.4h-28v3.2h28.5l-5,5l2.3,2.3l6.3-6.3l0,0L919,116.9
		L919,116.9L919,116.9z M914.2,117.2v-0.5l0.3,0.3L914.2,117.2z"/>
</g>
<path class="st1" d="M110.7,138.8c-0.1-0.1-0.1-0.2-0.2-0.2c-3.3-3.3-6.6-6.6-9.9-9.9c-0.1-0.1-0.1-0.1-0.2-0.2
	c-4,2.8-8.3,3.7-13.1,2.5c-3.8-0.9-6.8-3.1-9.1-6.3c-4.4-6.3-3.4-15.1,2.4-20.4c5.7-5.2,14.6-5.4,20.5-0.5
	c6.1,5.1,7.7,14.3,2.7,21.3c0.1,0.1,0.1,0.1,0.2,0.2c3.3,3.3,6.5,6.5,9.8,9.8c0.1,0.1,0.2,0.1,0.3,0.2c0,0,0,0.1,0,0.1
	C113,136.5,111.9,137.7,110.7,138.8C110.7,138.8,110.7,138.8,110.7,138.8z M80.4,115.9c0,6,4.9,10.9,10.8,10.9
	c6,0,10.8-4.9,10.8-10.8c0-6-4.8-10.9-10.8-10.9C85.3,105,80.4,109.9,80.4,115.9z"/>
</svg>
