<?xml version="1.0" encoding="utf-8"?>
<!-- Generator: Adobe Illustrator 24.0.1, SVG Export Plug-In . SVG Version: 6.00 Build 0)  -->
<svg version="1.1" id="Calque_1" xmlns="http://www.w3.org/2000/svg" xmlns:xlink="http://www.w3.org/1999/xlink" x="0px" y="0px"
	 viewBox="0 0 210 207" style="enable-background:new 0 0 210 207;" xml:space="preserve">
<style type="text/css">
	.st0{fill:#00BCBE;}
</style>
<path class="st0" d="M201.49,102.54c0,24.93,0,49.86,0,74.79c0,7.25-2.99,12.86-9.46,16.22c-6,3.12-11.98,2.54-17.5-1.33
	c-5.82-4.08-7.34-10.06-7.33-16.82c0.06-40.37,0.03-80.74,0.03-121.12c0-8.38-0.08-16.77,0.03-25.15c0.15-11.5,7.4-19.4,17.42-19.17
	c9.84,0.22,16.76,7.98,16.79,19.11C201.54,53.56,201.49,78.05,201.49,102.54z"/>
<path class="st0" d="M43.04,102.64c0,24.93,0.16,49.86-0.06,74.79c-0.12,14.12-13.59,22.36-25.3,15.78
	c-5.89-3.31-8.83-8.6-8.84-15.27C8.77,127.87,8.73,77.79,8.86,27.71c0.03-10.09,7.48-17.57,16.83-17.74
	c9.6-0.18,17.23,7.4,17.3,17.89C43.15,52.78,43.03,77.71,43.04,102.64z"/>
<path class="st0" d="M148.37,107.5c-0.2,21.83-7.61,40.94-21.63,57.61c-3.15,3.75-6.88,6.41-11.28,2.88
	c-4.85-3.89-2.46-8.01,0.83-11.96c24.87-29.85,24.55-69.75-0.37-99.48c-2.06-2.45-3.7-6.89-2.94-9.72
	c1.41-5.27,7.55-5.16,12.23-0.33C139.78,61.53,148.61,84.81,148.37,107.5z"/>
<path class="st0" d="M121.14,106.95c-0.43,14.82-5.02,28.09-14.57,39.56c-3.01,3.61-6.57,5.83-10.77,2.43
	c-4.12-3.34-2.92-7.14-0.01-11c15.67-20.78,15.5-42.91-0.5-63.13c-2.96-3.73-4.59-7.48-0.48-10.97c4.37-3.71,8.1-1.4,11.31,2.39
	C116.07,77.99,120.86,91.63,121.14,106.95z"/>
<path class="st0" d="M92.68,107.5c-1.86,14.33-4.98,15.77-8.25,20.39c-2.57,3.63-5.88,5.58-10.01,2.83
	c-4.11-2.73-3.87-6.43-1.33-10.34c6.25-9.6,5.9-19.04-1.06-28.15c-2.82-3.69-3.38-7.36,0.53-10.41c4.29-3.35,7.81-1.28,10.72,2.42
	C88.47,90.88,91.13,98.41,92.68,107.5z"/>
<path class="st0" d="M65.92,106.29c-0.55,5.15-3.3,8.33-8.44,8.3c-5.13-0.03-8.17-3.1-8.18-8.32c-0.01-5.27,3.02-8.19,8.24-8.17
	C62.77,98.12,65.41,101.23,65.92,106.29z"/>
</svg>
