<?xml version="1.0" encoding="utf-8"?>
<!-- Generator: Adobe Illustrator 23.0.4, SVG Export Plug-In . SVG Version: 6.00 Build 0)  -->
<svg version="1.1" id="Calque_1" xmlns="http://www.w3.org/2000/svg" xmlns:xlink="http://www.w3.org/1999/xlink" x="0px" y="0px"
	 viewBox="0 0 1212 44" style="enable-background:new 0 0 1212 44;" xml:space="preserve">
<style type="text/css">
	.st0{fill:url(#SVGID_1_);}
</style>
<radialGradient id="SVGID_1_" cx="605.2475" cy="22" r="430.2023" gradientTransform="matrix(0.9967 0 0 1 2.7434 0)" gradientUnits="userSpaceOnUse">
	<stop  offset="0" style="stop-color:#A9A9A9"/>
	<stop  offset="0.9954" style="stop-color:#FFFFFF"/>
</radialGradient>
<rect class="st0" width="1212" height="44"/>
</svg>
