<?xml version="1.0" encoding="utf-8"?>
<!-- Generator: Adobe Illustrator 24.0.3, SVG Export Plug-In . SVG Version: 6.00 Build 0)  -->
<svg version="1.1" id="Calque_1" xmlns="http://www.w3.org/2000/svg" xmlns:xlink="http://www.w3.org/1999/xlink" x="0px" y="0px"
	 viewBox="0 0 1411 283" style="enable-background:new 0 0 1411 283;" xml:space="preserve">
<style type="text/css">
	.st0{fill:none;}
	.st1{fill:#3E3C3F;}
	.st2{fill:#F7E200;}
	.st3{fill:#263A46;}
	.st4{fill:url(#SVGID_1_);}
	.st5{fill:url(#SVGID_2_);}
	.st6{fill:url(#SVGID_3_);}
	.st7{fill:url(#SVGID_4_);}
	.st8{fill:url(#SVGID_5_);}
	.st9{fill:#FFFFFF;}
	.st10{fill:url(#SVGID_6_);}
	.st11{fill:url(#SVGID_7_);}
	.st12{fill:url(#SVGID_8_);}
	.st13{fill:url(#SVGID_9_);}
	.st14{fill:url(#SVGID_10_);}
	
		.st15{fill:none;stroke:#F7E200;stroke-width:3;stroke-linecap:round;stroke-linejoin:round;stroke-miterlimit:10;stroke-dasharray:1.5934,6.3737,1.5934,6.3737,1.5934,6.3737;}
	.st16{fill:#F80447;}
</style>
<pattern  x="600" y="-169" width="113.39" height="170.08" patternUnits="userSpaceOnUse" id="New_Pattern_3" viewBox="41.44 -218.56 113.39 170.08" style="overflow:visible;">
	<g>
		<rect x="41.44" y="-218.56" class="st0" width="113.39" height="170.08"/>
		<g>
			<rect x="85.61" y="-85.47" class="st1" width="57.7" height="57.7"/>
			<rect x="113.39" y="-57.7" class="st1" width="57.7" height="57.7"/>
			<rect x="95.79" y="-122.43" class="st2" width="57.7" height="57.7"/>
			<rect x="123.57" y="-94.66" class="st2" width="57.7" height="57.7"/>
			<rect x="150.34" y="-67.88" class="st2" width="57.7" height="57.7"/>
			<rect x="146.83" y="-100.42" class="st1" width="36.39" height="36.39"/>
			<rect x="153.25" y="-123.73" class="st2" width="36.39" height="36.39"/>
		</g>
		<g>
			<rect x="0" y="-57.7" class="st1" width="57.7" height="57.7"/>
			<rect x="10.18" y="-94.66" class="st2" width="57.7" height="57.7"/>
			<rect x="36.96" y="-67.88" class="st2" width="57.7" height="57.7"/>
			<rect x="33.44" y="-100.42" class="st1" width="36.39" height="36.39"/>
			<rect x="50.96" y="-82.91" class="st1" width="36.39" height="36.39"/>
			<rect x="69.15" y="-66.02" class="st1" width="36.39" height="36.39"/>
			<rect x="39.86" y="-123.73" class="st2" width="36.39" height="36.39"/>
			<rect x="57.38" y="-106.22" class="st2" width="36.39" height="36.39"/>
			<rect x="74.27" y="-89.33" class="st2" width="36.39" height="36.39"/>
		</g>
		<g>
			<rect x="142.31" y="-170.51" class="st1" width="57.7" height="57.7"/>
			<rect x="152.49" y="-207.47" class="st2" width="57.7" height="57.7"/>
		</g>
		<g>
			<rect x="28.92" y="-170.51" class="st1" width="57.7" height="57.7"/>
			<rect x="56.69" y="-142.74" class="st1" width="57.7" height="57.7"/>
			<rect x="85.54" y="-115.96" class="st1" width="57.7" height="57.7"/>
			<rect x="39.1" y="-207.47" class="st2" width="57.7" height="57.7"/>
			<rect x="66.87" y="-179.7" class="st2" width="57.7" height="57.7"/>
			<rect x="93.65" y="-152.92" class="st2" width="57.7" height="57.7"/>
			<rect x="90.14" y="-185.46" class="st1" width="36.39" height="36.39"/>
			<rect x="107.65" y="-167.95" class="st1" width="36.39" height="36.39"/>
			<rect x="125.85" y="-151.06" class="st1" width="36.39" height="36.39"/>
			<rect x="96.56" y="-208.77" class="st2" width="36.39" height="36.39"/>
			<rect x="114.07" y="-191.26" class="st2" width="36.39" height="36.39"/>
			<rect x="130.96" y="-174.37" class="st2" width="36.39" height="36.39"/>
		</g>
		<g>
			<rect x="12.46" y="-151.06" class="st1" width="36.39" height="36.39"/>
			<rect x="17.57" y="-174.37" class="st2" width="36.39" height="36.39"/>
		</g>
		<g>
			<rect x="85.61" y="-255.55" class="st1" width="57.7" height="57.7"/>
			<rect x="113.39" y="-227.78" class="st1" width="57.7" height="57.7"/>
			<rect x="142.24" y="-201" class="st1" width="57.7" height="57.7"/>
			<rect x="123.57" y="-264.74" class="st2" width="57.7" height="57.7"/>
			<rect x="150.34" y="-237.96" class="st2" width="57.7" height="57.7"/>
		</g>
		<g>
			<rect x="0" y="-227.78" class="st1" width="57.7" height="57.7"/>
			<rect x="28.85" y="-201" class="st1" width="57.7" height="57.7"/>
			<rect x="10.18" y="-264.74" class="st2" width="57.7" height="57.7"/>
			<rect x="36.96" y="-237.96" class="st2" width="57.7" height="57.7"/>
			<rect x="50.96" y="-252.99" class="st1" width="36.39" height="36.39"/>
			<rect x="69.15" y="-236.1" class="st1" width="36.39" height="36.39"/>
		</g>
	</g>
</pattern>
<pattern  x="600" y="-169" width="113.39" height="170.08" patternUnits="userSpaceOnUse" id="New_Pattern_4" viewBox="40.36 -218.56 113.39 170.08" style="overflow:visible;">
	<g>
		<rect x="40.36" y="-218.56" class="st0" width="113.39" height="170.08"/>
		<g>
			<rect x="84.54" y="-85.47" class="st3" width="57.7" height="57.7"/>
			<rect x="113.39" y="-57.7" class="st3" width="57.7" height="57.7"/>
			<rect x="94.71" y="-122.43" class="st2" width="57.7" height="57.7"/>
			<rect x="122.49" y="-94.66" class="st2" width="57.7" height="57.7"/>
			<rect x="149.27" y="-67.88" class="st2" width="57.7" height="57.7"/>
			<rect x="145.75" y="-100.42" class="st3" width="36.39" height="36.39"/>
			<rect x="152.17" y="-123.73" class="st2" width="36.39" height="36.39"/>
		</g>
		<g>
			<rect x="0" y="-57.7" class="st3" width="57.7" height="57.7"/>
			<rect x="9.1" y="-94.66" class="st2" width="57.7" height="57.7"/>
			<rect x="35.88" y="-67.88" class="st2" width="57.7" height="57.7"/>
			<rect x="32.37" y="-100.42" class="st3" width="36.39" height="36.39"/>
			<rect x="49.88" y="-82.91" class="st3" width="36.39" height="36.39"/>
			<rect x="68.07" y="-66.02" class="st3" width="36.39" height="36.39"/>
			<rect x="38.79" y="-123.73" class="st2" width="36.39" height="36.39"/>
			<rect x="56.3" y="-106.22" class="st2" width="36.39" height="36.39"/>
			<rect x="73.19" y="-89.33" class="st2" width="36.39" height="36.39"/>
		</g>
		<g>
			<rect x="141.23" y="-170.51" class="st3" width="57.7" height="57.7"/>
			<rect x="151.41" y="-207.47" class="st2" width="57.7" height="57.7"/>
		</g>
		<g>
			<rect x="27.84" y="-170.51" class="st3" width="57.7" height="57.7"/>
			<rect x="56.69" y="-142.74" class="st3" width="57.7" height="57.7"/>
			<rect x="84.46" y="-115.96" class="st3" width="57.7" height="57.7"/>
			<rect x="38.02" y="-207.47" class="st2" width="57.7" height="57.7"/>
			<rect x="65.79" y="-179.7" class="st2" width="57.7" height="57.7"/>
			<rect x="92.57" y="-152.92" class="st2" width="57.7" height="57.7"/>
			<rect x="89.06" y="-185.46" class="st3" width="36.39" height="36.39"/>
			<rect x="106.57" y="-167.95" class="st3" width="36.39" height="36.39"/>
			<rect x="124.77" y="-151.06" class="st3" width="36.39" height="36.39"/>
			<rect x="95.48" y="-208.77" class="st2" width="36.39" height="36.39"/>
			<rect x="112.99" y="-191.26" class="st2" width="36.39" height="36.39"/>
			<rect x="129.88" y="-174.37" class="st2" width="36.39" height="36.39"/>
		</g>
		<g>
			<rect x="11.38" y="-151.06" class="st3" width="36.39" height="36.39"/>
			<rect x="16.5" y="-174.37" class="st2" width="36.39" height="36.39"/>
		</g>
		<g>
			<rect x="84.54" y="-255.55" class="st3" width="57.7" height="57.7"/>
			<rect x="113.39" y="-227.78" class="st3" width="57.7" height="57.7"/>
			<rect x="141.16" y="-201" class="st3" width="57.7" height="57.7"/>
			<rect x="122.49" y="-264.74" class="st2" width="57.7" height="57.7"/>
			<rect x="149.27" y="-237.96" class="st2" width="57.7" height="57.7"/>
		</g>
		<g>
			<rect x="0" y="-227.78" class="st3" width="57.7" height="57.7"/>
			<rect x="27.77" y="-201" class="st3" width="57.7" height="57.7"/>
			<rect x="9.1" y="-264.74" class="st2" width="57.7" height="57.7"/>
			<rect x="35.88" y="-237.96" class="st2" width="57.7" height="57.7"/>
			<rect x="49.88" y="-252.99" class="st3" width="36.39" height="36.39"/>
			<rect x="68.07" y="-236.1" class="st3" width="36.39" height="36.39"/>
		</g>
	</g>
</pattern>
<pattern  id="SVGID_1_" xlink:href="#New_Pattern_4" patternTransform="matrix(1.7974 0 0 1.7974 5982.2178 5611.23)">
</pattern>
<rect x="217.32" y="99.83" class="st4" width="33.1" height="24.72"/>
<rect x="270.34" y="83.9" class="st2" width="15.59" height="15.59"/>
<pattern  id="SVGID_2_" xlink:href="#New_Pattern_3" patternTransform="matrix(0.4673 0 0 0.4673 -3735.9797 -3926.1155)">
</pattern>
<path class="st5" d="M321.72,137.89c0-4.82,3.9-8.71,8.72-8.71c4.82,0,8.71,3.9,8.71,8.71c0,4.81-3.9,8.72-8.71,8.72
	C325.62,146.61,321.72,142.71,321.72,137.89z"/>
<pattern  id="SVGID_3_" xlink:href="#New_Pattern_4" patternTransform="matrix(1.7974 0 0 1.7974 5902.5752 5570.188)">
</pattern>
<polygon class="st6" points="254.9,128.92 297.11,115.66 287.49,158.84 "/>
<pattern  id="SVGID_4_" xlink:href="#New_Pattern_4" patternTransform="matrix(1.7974 0 0 1.7974 5902.5752 5570.188)">
</pattern>
<polygon class="st7" points="287.06,14.04 316.86,27.64 290.19,46.65 "/>
<pattern  id="SVGID_5_" xlink:href="#New_Pattern_4" patternTransform="matrix(1.7974 0 0 1.7974 5817.4268 5570.188)">
</pattern>
<polygon class="st8" points="313.17,170.85 322.04,198.14 298.82,215 275.61,198.14 284.48,170.85 "/>
<polygon class="st9" points="345.17,71.85 354.04,99.14 330.82,116 307.61,99.14 316.48,71.85 "/>
<polygon class="st2" points="220.52,181.85 220.52,160.85 198.52,162.85 198.52,192.85 "/>
<polygon class="st9" points="191.52,121.85 192.52,123.85 170.52,125.85 192.52,106.85 "/>
<polygon class="st9" points="254.52,244.54 254.52,203.85 211.9,207.72 236.52,224.85 "/>
<pattern  id="SVGID_6_" xlink:href="#New_Pattern_3" patternTransform="matrix(0.4673 0 0 0.4673 -3735.9797 -3926.1155)">
</pattern>
<polygon class="st10" points="254.52,186.85 263.52,157.85 241.52,155.85 233.52,170.85 "/>
<circle class="st9" cx="236.52" cy="46.85" r="12"/>
<pattern  id="SVGID_7_" xlink:href="#New_Pattern_4" patternTransform="matrix(1.7974 0 0 1.7974 5817.4268 5570.188)">
</pattern>
<circle class="st11" cx="298.52" cy="69.85" r="6"/>
<g>
	<pattern  id="SVGID_8_" xlink:href="#New_Pattern_4" patternTransform="matrix(1.7974 0 0 1.7974 5817.4268 5570.188)">
	</pattern>
	<polygon class="st12" points="186.52,219.85 175.52,219.85 186.52,230.85 	"/>
	<pattern  id="SVGID_9_" xlink:href="#New_Pattern_4" patternTransform="matrix(1.7974 0 0 1.7974 5817.4268 5570.188)">
	</pattern>
	<path class="st13" d="M224.52,268.85l-5-5h-28v-28l-5-5v22h-33v-33h22l-9.51-9.51L145.82,225l-23.21-16.86l8.87-27.29h28.69
		l1.89,5.81l34.46-36.81l-12-5.83v1.83h-48v-25.14l-115-55.86v204H224.52z M66.76,139.16h7.66v-4.08h27.73v-6.24
		c10.53,2.5,21.61,4.36,33.1,5.49v20.42H66.76V139.16z M82.68,223.8v24.73H69.03v-1.54h-7.84c-4.36-7.37-8.15-15.12-11.31-23.19
		H82.68z"/>
</g>
<pattern  id="SVGID_10_" xlink:href="#New_Pattern_4" patternTransform="matrix(1.7974 0 0 1.7974 5817.4268 5570.188)">
</pattern>
<path class="st14" d="M848.81,165.59c0.94,5.74-2.96,11.15-8.7,12.08c-5.74,0.94-11.14-2.95-12.08-8.69
	c-0.94-5.74,2.94-11.15,8.69-12.08C842.46,155.96,847.88,159.85,848.81,165.59z"/>
<path class="st15" d="M704.54,267.64c0,0,181-200,397-140s287-98,287-98"/>
<polygon class="st16" points="1117.22,140.94 1118.9,124.81 1132.03,134.33 "/>
<polygon class="st9" points="21.1,78.23 51.93,78.23 71.03,87.51 71.03,127.49 71.03,135.89 49.93,135.89 49.93,105.49 21.1,105.49 
	"/>
<polygon class="st9" points="41.25,177.77 41.25,212.75 86.72,212.75 86.72,178.94 "/>
<polygon class="st9" points="138.33,253.41 191.75,253.41 191.75,264.47 142.02,264.47 "/>
</svg>
