{
    "person":{
        "avatar":"",
        "nom":"ANDRIATAHINA",
        "prenom": "Dady Christon",
        "fonction": "Dévéloppeur Full Stack",
        "telephone": "+261 34 38 342 13",
        "email": "devchriston@gmail.com",
        "adresse": "Fianarantsoa Madagascar",
        "site": "dev-christon.herokuapp.com"
    },

    "formations":[
        {
            "periode":"2014 - 2017",
            "titre": "Formation en Développement d'Application Internet / Intranet",
            "lieu": "EMIT - Université de Fianarantsoa",
            "diplome": "Obtention de diplôme de licence professionnel"
        },
        {
            "periode":"18 - 22 /09/2017",
            "titre": "Formation en Conception de jeux vidéo",
            "lieu": "Talenta Center Fianarantsoa",
            "diplome": "Certifié"
        },
        {
            "periode":"10/2016",
            "titre": "Formation en gestion de projet",
            "lieu": "JCI Fianarantsoa",
            "diplome": ""
        }
    ],

    "experiences":{

    },

    "competences":{
        "langues":[
            {"langue":"malagasy", "note":5},
            {"langue":"francais", "note":4},
            {"langue":"anglais", "note":4},
            {"langue":"espagnol", "note":2}
        ],
        
        "technique":[

        ],
        "programmation":{
            "python": ""
        }
    },

    "realisations":{

    }
    
}