<?xml version="1.0" encoding="utf-8"?>
<!-- Generator: Adobe Illustrator 22.1.0, SVG Export Plug-In . SVG Version: 6.00 Build 0)  -->
<svg version="1.1" id="Calque_1" xmlns="http://www.w3.org/2000/svg" xmlns:xlink="http://www.w3.org/1999/xlink" x="0px" y="0px"
	 viewBox="0 0 358.8 344.6" style="enable-background:new 0 0 358.8 344.6;" xml:space="preserve">
<path d="M119.3,0.2c2.3,0.1,4.5,0.2,6.8,0.2c13.4,0.1,26.8,0.2,40.2,0.3c8,0.1,16,0.2,24,0.2c8,0.1,16,0.2,24,0.2c1.7,0,3.4,0,5.1,0
	c0,0.1,0,0.2,0,0.3c-0.2,0.1-0.4,0.2-0.6,0.3c-15.2,4-26.7,13.1-34.8,26.4c-4.2,6.9-7.9,14.1-11.8,21.1c-13,23.1-26,46.1-39,69.2
	c-0.2,0.3-0.4,0.6-0.6,1C108,105.9,83.4,92.3,58.8,78.6c0.9-1.6,1.7-3.1,2.6-4.6c8.4-15.2,16.8-30.4,25.3-45.6
	c3.3-5.9,7.2-11.4,11.8-16.2c5.6-5.8,12.1-10.3,20.3-11.8c0.1,0,0.2-0.1,0.3-0.2C119.1,0.2,119.2,0.2,119.3,0.2z"/>
<path d="M0.2,179.5c0.7-7.2,4.8-12.9,8-19.1c5.2-10.1,10.5-20.2,15.8-30.3c0.2-0.3,0.3-0.7,0.5-1.1c-7.4-5.8-14.7-11.5-22.1-17.3
	c0-0.1,0.1-0.2,0.1-0.4c1.1,0,2.2,0,3.3,0c5,0,9.9,0,14.9-0.1c11-0.1,22-0.2,33-0.2c8.8-0.1,17.7-0.1,26.5-0.3
	c0.9,0,1.4,0.3,1.8,1.1c12.6,23.4,25.2,46.8,37.9,70.2c0.1,0.2,0.2,0.4,0.2,0.7c-7.4-4-14.7-8-22.2-12c-1.9,3.2-3.8,6.3-5.7,9.4
	c-7.7,12.6-15.5,25.3-23.2,37.9c-0.5,0.8-1,1.2-2,1.2c-11.6,0.1-23.1,0-34.4-3c-13.8-3.7-23.8-12.2-29.9-25.1
	c-1.3-2.6-1.6-5.6-2.3-8.5C0.2,181.8,0.2,180.6,0.2,179.5z"/>
<path d="M224.6,344.9c-1.8-2.8-3.5-5.7-5.3-8.5c-12.1-19-24.2-38.1-36.4-57.1c-0.6-0.9-0.6-1.5-0.1-2.4C195.9,253.9,209,231,222,208
	c0.2-0.3,0.4-0.6,0.8-1.2c0.5,8.6,1.1,16.9,1.6,25.3c1.7,0,3.4,0,5,0c7.4,0,14.7-0.1,22.1-0.2c8.9-0.1,17.8,0,26.7-0.3
	c2.4-0.1,3.7,0.6,4.9,2.7c5,8.2,9.9,16.5,13.4,25.5c5,12.7,4.2,25.3-1.4,37.6c-3,6.5-7.6,11.6-14.5,14.2c-2.9,1.1-6,1.3-9.1,1.6
	c-13.2,1-26.5,2.1-39.7,3.1c-1.3,0.1-2.7,0.2-4.1,0.3c-0.5,4.4-0.9,8.7-1.4,13.1c-0.5,4.8-1,9.5-1.5,14.3c0,0.3,0,0.6,0,1
	C224.8,344.9,224.7,344.9,224.6,344.9z"/>
<path d="M5.8,211.1c3.3,3.3,6.8,6.3,10.7,8.9c7.6,5,15.9,8,24.9,8.9c5.1,0.5,10.2,0.5,15.3,0.5c8,0.1,15.9,0.1,23.9,0.1
	c8.6,0,17.3,0.1,25.9,0.2c11.4,0.1,22.8,0.2,34.2,0.2c3.3,0,6.6,0.1,9.9,0.2c0.2,0,0.5,0.1,0.7,0.1c0,28.1,0,56.1,0,84.2
	c-0.5,0-0.9,0-1.4,0c-18.5,0-37,0.1-55.5,0c-9.2,0-18.2-1.1-26.8-4.6c-5-2-9.5-4.9-13-9c-0.9-1-1.6-2.3-2.3-3.5
	c-15.3-28.3-30.6-56.5-45.9-84.8C6.2,212.1,6,211.6,5.8,211.1z"/>
<path d="M317.8,110.8c0.2,0.3,0.4,0.5,0.5,0.8c9.8,15.6,19.6,31.2,29.3,46.9c4.5,7.2,8.2,14.8,10.1,23.2c1.5,6.4,1.8,12.8-0.5,19
	c-0.9,2.6-2.5,4.9-3.9,7.3c-15.2,26.8-30.4,53.6-45.7,80.4c-0.1,0.2-0.2,0.4-0.5,0.6c0.3-1.4,0.7-2.8,0.9-4.2
	c2.8-14.2,0.2-27.6-7-40.1c-4.8-8.3-10.1-16.4-15.2-24.6c-13-21.1-26-42.2-38.9-63.3c-0.2-0.4-0.5-0.8-0.8-1.3
	C270.1,140.6,293.9,125.7,317.8,110.8z"/>
<path d="M282.4,57.6c8.7-3.7,17.3-7.3,26.2-11.1c-1.1,2-2,3.8-3,5.5c-11.5,21.1-22.9,42.2-34.4,63.3c-0.4,0.7-0.8,0.9-1.6,0.9
	c-8.4-0.1-16.7-0.2-25.1-0.3c-9-0.1-18.1-0.2-27.1-0.3c-6.9-0.1-13.8-0.2-20.7-0.2c-2.6,0-5.1,0-7.7,0c0-0.1,0-0.2-0.1-0.4
	c7-4.5,14.1-9,21.2-13.5c-3.9-6.9-7.8-13.7-11.6-20.5c-5.3-9.3-10.6-18.7-15.9-28c-0.2-0.4-0.4-1.2-0.2-1.6
	c4.7-8.9,9.8-17.5,16.1-25.4c8.7-10.9,20-16.7,33.7-17.9c7.5-0.7,14.6,0.8,20.4,6.1c1.6,1.5,3,3.2,4.2,5c8.4,12.6,16.7,25.2,25,37.8
	C282.1,57.1,282.2,57.3,282.4,57.6z"/>
</svg>
