{
    "_id" : ObjectId("6007c6ec8b509c3c4f8b458f"),
    "type" : "blockCms",
    "path" : "tpls.blockCms.filiere.annuaire",
    "name" : "annuaire",
    "developpeur" : "false",
    "img" : "",
    "description" : "Description de l'annuaire avec carte à coté",
    "parent" : "",
    "created" : NumberLong(1611122412),
    "creator" : "5fb4fb408b509c94498b4597"
}
