{
    "slug": "cocityPrez",
    "welcomeTpl": "costum.views.custom.cocityPrez.home",
    "favicon": "/images/cocity/logo-cocity.png",
    "metaImg": "/images/cocity/logo-cocity.png",
    "logoMin": "/images/cocity/logo-cocity.png",
    "logo": "/images/cocity/logo-cocity.png",
    "sourceKey": true,
    "js": {
        "urls": [
            "cocityPrez_index.js"
        ]
    },
    "css": {
        "urls": [
            "main.css"
        ],
        "loader": {
            "background": "white",
            "ring1": {
                "color": "#8ABF32",
                "height": 360,
                "width": 360,
                "left": -15,
                "borderWidth": 4,
                "top": -35
            },
            "ring2": {
                "color": "#0A96B5",
                "height": 350,
                "width": 350,
                "left": -10,
                "borderWidth": 5,
                "top": -30
            }
        },
        "progress": {
            "value": {
                "background": "#bec9f7"
            },
            "bar": {
                "background": "#fff"
            }
        },
        "menuApp": {
            "background": "#bec9f7",
            "button": {
                "fontSize": 25,
                "color": "#fff",
                "hover": {
                    "borderBottom": "2px solid #fff"
                }
            }
        },
        "button": {
            "footer": {
                "add": {
                    "paddingLeft": "10px",
                    "fontSize": 30,
                    "bottom": 1000,
                    "background": "transparent",
                    "color": "#098048"
                },
                "toolbarAdds": {
                    "bottom": 10,
                    "paddingLeft": "40px",
                    "fontSize": 50,
                    "left": "0"
                }
            }
        },
        "color": {
            "purple": "#bec9f7"
        }
    },
    "dynForm": {
        "jsonSchema": {
            "title": "Template config",
            "type": "object"
        }
    },
    "app": {},
    "htmlConstruct": {
        "header": {
            "menuTop": {
                "left": {
                    "buttonList": {
                        "logo": {
                            "height": "50"
                        },
                        "xsMenu": {
                            "buttonList": {
                                "app": {
                                    "label": true,
                                    "buttonList": {}
                                }
                            }
                        },
                        "app": {
                            "label": true,
                            "icon": true,
                            "class": "line-height-3 padding-left-10",
                            "labelClass": "padding-left-5",
                            "buttonList": {}
                        }
                    }
                }
            }
        },
        "element": {
            "tplCss": [
                "v1.0_pageProfil.css"
            ],
            "banner": "co2.views.element.bannerHorizontal",
            "containerClass": {
                "centralSection": "col-xs-12 col-lg-10 col-lg-offset-1"
            },
            "menuTop": {
                "class": "col-xs-12",
                "left": {
                    "class": "col-lg-3 col-md-3 col-sm-4 hidden-xs no-padding",
                    "buttonList": {
                        "imgUploader": true
                    }
                },
                "right": {
                    "class": "col-md-12 col-sm-12 col-lg-12 col-xs-12 text-center",
                    "buttonList": {
                        "xsMenu": {
                            "class": "visible-xs",
                            "buttonList": {}
                        },
                        "app": {
                            "class": "hidden-xs",
                            "label": true,
                            "icon": false,
                            "spanTooltip": false,
                            "buttonList": {}
                        },
                        "params": {
                            "buttonList": {
                                "settings": true
                            }
                        }
                    }
                }
            }
        },
        "directoryViewMode": "block",
        "footer": {
            "url": "costum.views.custom.costumize.footer"
        },
        "redirect": {
            "logged": "welcome",
            "unlogged": "welcome"
        }
    },
    "typeObj": {},
    "filters": {
        "sourceKey": true
    },
    "lists": {
        "theme": {}
    }
}