{
    "welcomeTpl" : "costum.views.custom.coevent.home",
    "name" : "coevent",
    "sourceKey" : false,
    "slug" : "coevent",
    "favicon" : "/images/coevent/icone.png",
    "metaImg" : "/images/coevent/logo.png",
    "logoMin" : "/images/coevent/logo.png",
    "logo" : "/images/coevent/logo.png",
    "js" : {
        "urls" : [
            "coevent_index.js"
        ]
    },
    "dynForm" : {
        "jsonSchema" : {
            "title" : "Template config",
            "type" : "object",
            "properties" : {
                "text1" : {
                    "label" : "Text 1",
                    "inputType" : "textarea",
                    "path" : "costum.text1"
                },
                "logoMin" : {
                    "label" : "Image Logo",
                    "inputType" : "text",
                    "path" : "costum.logoMin"
                },
                "elementBanner" : {
                    "label" : "Image Banière",
                    "inputType" : "image",
                    "path" : "costum.elementBanner"
                },
                "color1" : {
                    "label" : "Couleur 1",
                    "inputType" : "colorpicker",
                    "path" : "costum.colors.pink"
                },
                "color2" : {
                    "label" : "Couleur 2",
                    "inputType" : "colorpicker",
                    "path" : "costum.colors.dark"
                },
                "typeObj" : {
                    "label" : "Selectionnez les éléments qui peuvent etre ajouter",
                    "inputType" : "select",
                    "placeholder" : "---- Things that can be added ----",
                    "options" : {
                        "poi" : "Point of Interests",
                        "organization" : "Organization",
                        "project" : "projects",
                        "event" : "Events",
                        "person" : "People",
                        "proposal" : "Proposals"
                    },
                    "path" : "costum.slug"
                },
                "menuApp" : {
                    "label" : "Selectionnez les modules qui peuvent etre ajouter",
                    "inputType" : "select",
                    "placeholder" : "---- Active Modules ----",
                    "options" : {
                        "search" : "Search",
                        "agenda" : "Agenda"
                    },
                    "path" : "costum.slug"
                }
            }
        }
    },
    "filters" : {
        "sourceKey" : false
    },
    "htmlConstruct" : {
        "appRendering" : "vertical",
        "redirect" : {
            "logged" : "welcome",
            "unlogged" : "welcome"
        },
        "header" : {
            "menuTop" : {
                "left" : {
                    "buttonList":{
                        "logo" : {
                            "height" : 40
                        },
                        "useFilter" : {
                            "scopeFilter" : false,
                            "showFilter" : false
                        }
                    }
                },
                "right" : {
                    "buttonList":{
                        "notifications" : true,
                        "userProfil" : {
                            "img" : true,
                            "name" :true
                        },
                        "dropdown" : {
                            "connected":true,
                            "buttonList":{
                                "admin" : true,
                                "logout" : true
                            }
                        },
                        "login" : true
                    }
                }
            },
            "menuLeft" : {
                "buttonList":{
                    "app" : {
                        "buttonList":{
                            "#live":true
                        }
                    }
                }
            }
        },
        "adminPanel" : {
            "add" : true,
            "menu" : {
                "directory" : true,
                "statistic" : true,
                "converter" : true,
                "import" : true,
                "community":{
                    "show": true
                },
                "reference" : {
                    "show": true
                }
            }
        },
        "element" : {
            "initView" : "detail",
            "menuLeft" : {
                "detail" : true,
                "gallery" : true,
                "events" : true,
                "projects" : true,
                "community" : true,
                "pois" : {
                    "label" : "Articles",
                    "icon" : "newspaper-o"
                }
            },
            "menuBottom" : {
                "add" : true
            },
            "menuTop" : {
                "img" : true,
                "btnGroup" : {
                    "imgProfil" : true,
                    "nameProfil" : true,
                    "newspaper" : false,
                    "cospace" : false,
                    "chat" : false,
                    "create" : false,
                    "params" : {
                        "dropdown" : true
                    }
                },
                "navRight" : {
                    "connected" : {
                        "dropdownUser" : {
                            "languages" : true,
                            "statistics" : false,
                            "documentation" : false,
                            "donate" : false,
                            "admin" : true,
                            "settings" : false,
                            "logout" : true
                        },
                        "userProfil" : {
                            "img" : true
                        },
                        "networkFloop" : false,
                        "notifications" : true,
                        "dda" : false,
                        "chat" : false,
                        "home" : false,
                        "app" : false
                    },
                    "disconnected" : {
                        "languages" : false,
                        "login" : true,
                        "app" : true
                    }
                }
            }
        },
        "directory" : {
            "results" : {
                "organizations" : {
                    "defaultImg" : "/images/coevent/default_directory.jpg"
                },
                "projects" : {
                    "defaultImg" : "/images/coevent/default_directory.jpg"
                },
                "events" : {
                    "defaultImg" : "/images/coevent/default_directory.jpg"
                }
            },
            "footer" : {
                "add" : false
            }
        },
        "footer" : {
            "url" : "costum.views.custom.coevent.footer"
        }
    },
    "css" : {
        "urls" : [
            "coevent_index.css"
        ],
        "loader" : {
            "background" : "white",
            "ring1" : {
                "color" : "red",
                "height" : 420,
                "width" : 420,
                "left" : -15,
                "borderWidth" : 4,
                "top" : -35
            },
            "ring2" : {
                "color" : "red",
                "height" : 400,
                "width" : 400,
                "left" : -10,
                "borderWidth" : 5,
                "top" : -30
            }
        },
        "progress" : {
            "value" : {
                "background" : "red"
            },
            "bar" : {
                "background" : "red"
            }
        },
        "menuTop" : {
            "background" : "white",
            "button" : {
                "paddingTop" : 900,
                "fontSize" : 25,
                "color" : "black"
            },
            "badge" : {
                "background" : "#497614",
                "border" : "3px solid white"
            },
            "scopeBtn" : {
                "display" : "none"
            },
            "filterBtn" : {
                "display" : "none"
            },
            "connectBtn" : {
                "background" : "red",
                "color" : "white",
                "fontSize" : 18,
                "borderRadius" : 10,
                "padding" : "8px 15px"
            }
        },
        "menuApp" : {
            "top" : "55",
            "background" : "white",
            "button" : {
                "fontSize" : 25,
                "color" : "black",
                "hover" : {
                    "borderBottom" : "2px solid #fff"
                }
            }
        },
        "button" : {
            "footer" : {
                "add" : {
                    "bottom" : 10,
                    "background" : "red",
                    "color" : "black"
                },
                "toolbarAdds" : {
                    "bottom" : 10
                }
            }
        }
    },
    "typeObj" : {
        "event" : {
            "add" : true
        }
    },
    "app" : {
        "#live" : {
            "slug" : "<?php echo $this->costum['contextSlug'] ?>",
            "subdomainName" : "L'actualités",
            "icon" : "newspaper-o",
            "nameMenuTop" : "Actualités",
            "formCreate" : false,
            "inMenu" : true,
            "placeholderMainSearch" : "Actualité"
        }
    },
    "searchOpenMenu" : [ 
        {
            "url" : "#article",
            "msg" : "Tous les articles"
        }
    ]
}
