{
    "welcomeTpl" : "costum.views.custom.templateCostum.home",
    "sourceKey" : true,
    "slug" : "costumtemplatetwo",
    "favicon" : "/ico/templateCostum/default.ico",
    "metaImg" : "/images/templateCostum/default.png",
    "logo" : "/images/templateCostum/default.png",
    "logoMin" : "/images/templateCostum/default.png",
    "filters" : {
        "sourceKey" : true
    },
    "htmlConstruct" : {
        "appRendering" : "vertical",
        "redirect" : {
            "logged" : "welcome",
            "unlogged" : "welcome"
        },
        "header" : {
            "menuTop" : {
                "navLeft" : {
                    "logo" : {
                        "height" : 40
                    },
                    "searchBar" : false
                },
                "navRight" : {
                    "connected" : {
                        "dropdownUser" : {
                            "languages" : false,
                            "statistics" : false,
                            "documentation" : false,
                            "donate" : false,
                            "admin" : true,
                            "settings" : false,
                            "logout" : true
                        },
                        "userProfil" : {
                            "img" : true,
                            "name" : true
                        },
                        "networkFloop" : false,
                        "notifications" : false,
                        "dda" : false,
                        "chat" : false,
                        "home" : false,
                        "app" : true
                    },
                    "disconnected" : {
                        "languages" : false,
                        "login" : true
                    }
                }
            },
            "logo" : "/images/coeurNumerique/logofn.svg",
            "bannerImg" : "/images/smarterre/commun/Materiel.jpeg"
        },
    "footer" : {
        "url" : "costum.views.custom.templateCostum.footer",
        "html" : {
            "left" : {
                "urls" : [
                {
                    "name" : "Mentions légale",
                    "url" : "#"
                },
                {
                    "name" : "Politique confidentialité",
                    "url" : "#"
                }
                ]
            },
            "right" : {
                "urls" : [
                    {
                        "img" : "/images/smarterre/economie/education.jpg",
                        "url" : "http://truc.com"
                    }
                ]
            }
        }
    },
    "directory" : {
        "results" : {
            "organizations" : {
                "defaultImg" : "/images/coeurNumerique/default_directory.png"
            },
            "projects" : {
                "defaultImg" : "/images/coeurNumerique/default_directory.png"
            },
            "events" : {
                "defaultImg" : "/images/coeurNumerique/default_directory.png"
            }
        },
        "footer" : {
            "add" : false
        }
    },
    "element" : {
        "menuLeft" : {
            "detail" : true,
            "gallery" : true,
            "events" : true,
            "projects" : true,
            "community" : true
        },
        "menuTop" : {
            "img" : true,
            "btnGroup" : {
                "imgProfil" : true,
                "nameProfil" : true,
                "newspaper" : false,
                "cospace" : false,
                "chat" : false,
                "create" : false,
                "params" : {
                    "dropdown" : true
                }
            },
            "navRight" : {
                "connected" : {
                    "dropdownUser" : {
                        "languages" : true,
                        "statistics" : false,
                        "documentation" : false,
                        "donate" : false,
                        "admin" : true,
                        "settings" : false,
                        "logout" : true
                    },
                    "userProfil" : {
                        "img" : true
                    },
                    "networkFloop" : false,
                    "notifications" : true,
                    "dda" : false,
                    "chat" : false,
                    "home" : false,
                    "app" : false
                },
                "disconnected" : {
                    "languages" : false,
                    "login" : true,
                    "app" : true
                }
            }
        },
        "intro" : {
            "title" : "Partageons ensemble l'art",
            "left" : {
                "title" : "Dessin",
                "paragraphe" : "Découvrez mon univers ainsi que le votre à travers des dessins que nous réaliserons et partagons"
            },
            "right" : {
                "img" : "/images/smarterre/economie/education.jpg"
            }
        },
        "description" : {
            "left" : {
                "title" : "La solidarité",
                "paragraphe" : "Soyons solidaire en partageons ensemble nos créations"
            },
            "right" : {
                "img" : "/images/smarterre/commun/Communaute.jpeg"
            }
        },
        "actu" : {
            "active" : true,
            "title" : "File d'actualité"
        },
        "agenda" : {
            "active" : true,
            "title" : "Les prochaines rencontres",
            "caroussel" : true
        }
    }
    },
    "css" : {
        "loader" : {
            "background" : "white",
            "ring1" : {
                "color" : "#6abea2",
                "height" : 360,
                "width" : 360,
                "left" : -15,
                "borderWidth" : 4,
                "top" : -35
            },
            "ring2" : {
                "color" : "#313757",
                "height" : 350,
                "width" : 350,
                "left" : -10,
                "borderWidth" : 5,
                "top" : -30
            }
        },
        "progress" : {
            "value" : {
                "background" : "#313757"
            },
            "bar" : {
                "background" : "red"
            }
        },
        "menuTop" : {
            "background" : "#766ddf",
            "button" : {
                "paddingTop" : 900,
                "fontSize" : 25,
                "color" : "#aaa3fc"
            },
            "badge" : {
                "background" : "#497614",
                "border" : "100px solid white"
            },
            "scopeBtn" : {
                "display" : "none"
            },
            "filterBtn" : {
                "display" : "none"
            },
            "connectBtn" : {
                "background" : "#313757",
                "color" : "white",
                "fontSize" : 18,
                "borderRadius" : 10,
                "padding" : "8px 15px"
            }
        },
        "menuApp" : {
            "top" : "60",
            "background" : "#aaa3fc",
            "button" : {
                "fontSize" : 25,
                "color" : "#41445c",
                "hover" : {
                    "borderBottom" : "2px solid #fff"
                }
            }
        },
        "button" : {
            "footer" : {
                "add" : {
                    "bottom" : 10,
                    "background" : "#00aca9",
                    "color" : "white"
                },
                "toolbarAdds" : {
                    "bottom" : 10
                }
            }
        },
        "urls" : [
            "../templateCostum/index.css"
        ],
        "header" : {
            "background" : "blue"
        },
        "intro" : {
            "color" : "white",
            "background" : "#aaa3fc"
        },
        "description" : {
            "background" : "#766ddf",
            "color" : "black"
        },
        "actu" : { 
            "color" : "red"
        },
        "agenda" : {
            "background" : "#aaa3fc",
            "color" : "white",
            "card" : {
                "background" : "#766ddf",
                "color" : "white"
            }
        },
        "footer" : {
            "background" : "blue",
            "color" : "white"
        }
    },
    "app" : {
        "#welcome" : {
            "subdomainName" : "Accueil Fillière Numérique"
        },
        "#live" : {
            "subdomainName" : "Actu",
            "formCreate" : false,
            "useFilter" : false,
            "viewMode" : "list"
        }
    },
    "menuBottom" : {
        "add" : true
    }
}