{
    "welcomeTpl" : "costum.views.custom.cressReunion.home",
    "sourceKey" : true,
    "slug" : "cressReunion",
    "title" : "ARESS",
    "host": "www.aress-reunion.re",
    "favicon" : "/ico/cressReunion/favicon.ico",
    "logo" : "/images/cressReunion/Logo ARESS.png",
    "js" : {
        "urls" : [
            "cressReunion_index.js"
        ]
    },
    "class" : {
        "function" : [ "elementAfterSave", "prepData", "answerValidate", "updateBlock", "generateElementBeforeSave", "addSearchFields", "addGlobalSearchFields"]
    },
    "htmlConstruct" : {
        "appRendering" : "vertical",
        "redirect" : {
            "logged" : "welcome",
            "unlogged" : "welcome"
        },
        "adminPanel" : {
            "js":true,
            "add" : true,
            "menu":{
                "statistic" : true,
                "reference" : {
                    "label" : "Référencement",
                    "show":true
                },
                "community" : {
                    "show":true,
                    "label": "Membres"
                },
                "diff" : {
                    "label": "Organisations à modérer",
                    "icon" : "users",
                    "view" : "diff",
                    "class" : "text-green"
                },
                "organizations" : {
                    "label": "Organisations CRESS Reunion",
                    "icon" : "users",
                    "view" : "organizations",
                    "class" : "text-green"
                }
            }
        },
        "header" : {
            "menuTop" : {
                "left" : {
                    "buttonList":{
                        "xsMenu":{
                            "buttonList":{
                                "app":{
                                    "label":true,
                                    "buttonList":{
                                        "#search":true,
                                        "#actions":true,
                                        "#mapcress":true,
                                        "#mapmoisess":true,
                                        "#agenda":true,
                                        "#annonces":true,
                                        "#live":true,
                                        "#ecoCirculaire":true
                                    }
                                }
                            }
                        },
                        "logo" : {
                            "height" : 40
                        },
                        "searchBar" : true
                     }
                },
                "right" : {
                    "buttonList":{
                        "notifications" : true,
                        "chat" : true,
                        "networkFloop" : true,
                        "userProfil" : {
                            "img" : true,
                            "name" :false
                        },
                        "dropdown" : {
                            "connected":true,
                            "buttonList":{
                                "admin" : {"restricted": {"members":true}},
                                "logout" : true
                            }
                        },
                        "login" : true

                    }
                }
            }
        },
        "menuLeft" : {
            "buttonList":{
                "app" : {
                    "buttonList":{
                        "#search":true,
                        "#actions":true,
                        "#mapcress":true,
                        "#mapmoisess":true,
                        "#agenda":true,
                        "#annonces":true,
                        "#live":true,
                        "#ecoCirculaire":true
                    }
                }
            }
        },
        "directory" : {
            "header" : {
                "map" : true
            },
            "results" : {
                "organizations" : {
                    "defaultImg" : "/images/cressReunion/Icone_agir_ensemble.PNG"
                },
                "projets" : {
                    "defaultImg" : "/images/cressReunion/Icone_agir_ensemble.PNG"
                },
                "events" : {
                    "defaultImg" : "/images/cressReunion/Icone_agir_ensemble.PNG"
                }
            },
            "footer" : {
                "add" : true
            }
        },
        "footer" : {
            "url" : "costum.views.custom.cressReunion.footer"
        },
        "preview": {
            "element" : "costum.views.custom.cressReunion.preview"
        },
        "element" : {
            "js" : "pageProfil.js",
            "initView" : "detail",
            "banner" : {
                "headerInfos": "costum.views.custom.cressReunion.headerInfos"
            },
            "menuTop" : {
                "left" : {
                    "buttonList" : {
                        "imgUploader":true
                    }
                },
                "right":{
                    "buttonList" : {
                        "xsMenu" : {
                            "label":"Menu",
                            "buttonList" : {
                                "detail" : true,
                                "community" : true,
                                "gallery" : true,
                                "events" : true,
                                "classifieds" : true,
                                "newspaper" : true,
                                "chat":true,
                                "create":true
                            }
                        },
                        "imgProfil":true,
                        "nameProfil":true,
                        "detail" : true,
                        "gallery" : true,
                        "community" : true,
                        "events" : true,
                        "projects" : true,
                        "ressources" : true,
                        "newspaper" : true,
                        "create":true,
                        "share": {
                            "label": "Share",
                            "icon": "share",
                            
                            "labelClass": "hidden-sm",
                            "typeAllow": [
                                "projects",
                                "organizations",
                                "events"
                            ],
                            "action": "share"
                        },
                        "dropdown":{
                            "buttonList" : {
                                "history" : true,
                            "settings" : true,
                            "settingsCommunity": true,
                            "mindmap" : true,
                            "editSlug" : true,
                            "delete" : true
                            }
                        }
                    }
                }
            }
        },
        "menuBottom" : {
            "buttonList" : {
                "add" : {
                    "class" : "pull-left padding-10 show-bottom-add"
                }
            }    
        }
    },
     "css" : {
        "urls" : [ 
            "cressReunion_filters.css",
            "cressReunion_index.css"
        ],
        "loader" : {
            "background" : "white",
            "ring1" : {
                "color" : "#00b3de",
                "height" : 360,
                "width" : 360,
                "left" : -15,
                "borderWidth" : 4,
                "top" : -35
            },
            "ring2" : {
                "color" : "#9dc21c",
                "height" : 350,
                "width" : 350,
                "left" : -10,
                "borderWidth" : 5,
                "top" : -30
            }
        },
        "progress" : {
            "value" : {
                "background" : "#9dc21c"
            },
            "bar" : {
                "background" : "#fff"
            }
        },
        "header" : {
            "height" : 150
        },
        "menuTop" : {
            "background" : "#00b3de",
            "button" : {
                "paddingTop" : 0,
                "fontSize" : 30,
                "color" : "white"
            },
            "badge" : {
                "background" : "white",
                "color" : "#00b3de",
                "border" : "1px solid white"
            },
            "scopeBtn" : {
                "display" : "none"
            },
            "filterBtn" : {
                "display" : "none"
            },
            "connectBtn" : {
                "background" : "#004c97",
                "color" : "white",
                "fontSize" : 18,
                "borderRadius" : 10,
                "padding" : "8px 15px"
            }
        },
        "menuLeft" : {
            "background" : "#9dc21c",
            "button" : {
                "fontSize" : 25,
                "color" : "#fff",
                "hover" : {
                    "borderBottom" : "2px solid #fff"
                }
            }
        },
        "button" : {
            "footer" : {
                "add" : {
                    "bottom" : 25,
                    "fontSize" : 35,
                    "background" : "transparent",
                    "color" : "white"
                },
                "toolbarAdds" : {
                    "bottom" : 30
                }
            }
        },
        "color" : {
            "green" : "#98bf16",
            "blue" : "#00a0d0",
            "orange" : "#ea990a",
            "red" : "#b52258",
            "dark" : "#444"
        }
    },
    "app" : {
        "#search" : {
            "subdomainName" : "Les acteurs et initiatives de l'ESS",
            "icon" : "group",
            "filterObj":"costum.views.custom.cressReunion.filters",
            "useFilter" : true,
            "searchObject" : {
                "indexStep" : "0"
            },
            "filters" : {
                "types" : [ 
                    "NGO", 
                    "Group",
                    "LocalBusiness",
                    "GovernmentOrganization"
                ]
            }    
        },
        "#actions" : {
            "hash" : "#app.search",
            "subdomainName" : "Les actions des acteurs et initiatives de l'ESS",
            "icon" : "lightbulb-o",
            "urlExtra" : "/page/actions",
            "filterObj":"costum.views.custom.cressReunion.filters",
            "useFilter" : true,
            "searchObject" : {
                "indexStep" : "0"
            },

            "filters" : {
                "types" : [
                    "projects"
                ]
            }
        },
        "#mapmoisess" : {
            "hash" : "#app.search",
            "urlExtra" : "/page/mapmoisess",
            "subdomainName" : "Carte du mois de l'ESS",
            "icon" : "rocket",
            "mainTitle" : "Carte du mois de l'ESS",
            "placeholderMainSearch" : "Carte du mois de l'ESS",
            "showMap":true,
            "filterObj":"costum.views.custom.cressReunion.filters",
            "useFilter" : true,
            "loadEvent":{
                "default":"scroll"
            },
            "results":{
                "multiCols":false
            },
            "filters" : {
                "types" : [ 
                    "NGO",
                    "Group", 
                    "GovernmentOrganization", 
                    "LocalBusiness", 
                    "projects", 
                    "events"
                ],
                "tags" : [
                    "MoisESS2021"
                ]
                
            }      
        },
        "#mapcress" : {
            "hash" : "#app.search",
            "urlExtra" : "/page/mapcress",
            "icon" : "map-marker",
            "subdomainName" : "Carte des acteurs et initiatives de l'ESS 2",
            "mainTitle" : "Carte es acteurs et initiatives de l'ESS 2",
            "placeholderMainSearch" : "Carte es acteurs et initiatives de l'ESS 2",
            "filterObj":"costum.views.custom.cressReunion.filters",
            "useFilter" : true,
            "showMap":true,
            "loadEvent":{
                "default":"scroll"
            },
            "results":{
                "multiCols":false
            },
            "filters" : {
                "types" : [ 
                    "NGO", 
                    "Group", 
                    "GovernmentOrganization", 
                    "LocalBusiness", 
                    "projects",
                    "events"
                ]
            }
        },
        "#agenda" : {
            "subdomainName" : "Agenda solidaire",
            "filterObj":"costum.views.custom.cressReunion.filterEvent",
            "useFilter" : true
        },
        "#annonces" : {
            "icon" : "cogs",
            "subdomainName" : "S'entraider",
            "hash":"#default.index.goToSearch.true",
            "filters" : {
                "type" : "ressources"
            }
        },
        "#live" : {
            "icon" : "newspaper-o",
            "subdomaineName" : "L'actualité solidaire",
            "slug" : "cressReunion",
            "formCreate" : false,
            "useFilter" : false
        },
        "#ecoCirculaire" : {
            "module" : "survey",
            "urlExtra" : "/page/ecoCirculaire",
            "hash" : "#answer.new",
            "icon" : "spinner",
            "newPage" : {
                "title" : "Questionnaire de l'économie circulaire",
                "subtitle" : "",
                "button" : "Répondre au questionnaire"
            },
            "useHeader" : true,
            "isTemplate" : true,
            "useFooter" : true,
            "useFilter" : false,
            "subdomainName" : "Formulaire Economie circulaire"
        }
    },
    "filters" : {
        "sourceKey" : true,
        "searchTypeGS" : [ 
            "organizations", 
            "projects"
        ]
    },
    "typeObj" : {
        "organizations" : {
            "add" : true,
            "toBeValidated" : true,
            "dynFormCostum" : {
                "beforeBuild" : {
                    "properties" : {
                        "siret" : {
                            "inputType" : "text",
                            "value" : "",
                            "label" : "SIRET",
                            "order" : 1,
                            "maxlength" : 14,
                            "minlength" : 14,
                            "rules" : {
                                "required" : true
                            }
                        },
                        "siren" : {
                            "inputType" : "hidden",
                            "value" : "",
                            "order" : 3
                        },
                        "waldec" : {
                            "inputType" : "text",
                            "value" : "",
                            "label" : "Votre numéro WALDEC/RNA",
                            "order" : 4
                        },
                        "sigle" : {
                            "inputType" : "text",
                            "value" : "",
                            "label" : "SIGLE",
                            "order" : 5
                        },
                        "typeEtablissement" : {
                            "inputType" : "select",
                            "label" : "Type d'établissement",
                            "placeholder" : "Choisir un type d'établissement",
                            "list" : "typeEtablissement",
                            "optionsValueAsKey" : true,
                            "order" : 6,
                            "rules" : {
                                "required" : true
                            },
                            "isSelect2" : true
                        },
                        "arrondissement" : {
                            "inputType" : "select",
                            "label" : "Arrondissement",
                            "placeholder" : "Choisir une arrondissement",
                            "list" : "arrondissement",
                            "optionsValueAsKey" : true,
                            "order" : 7,
                            "isSelect2" : true,
                            "rules" : {
                                "required" : true
                            }
                        },
                        "secteurEtablissement" : {
                            "inputType" : "select",
                            "label" : "Secteur d'activité",
                            "placeholder" : "Choisir un secteur d'activité",
                            "list" : "secteurEtablissement",
                            "optionsValueAsKey" : true,
                            "order" : 8,
                            "isSelect2" : true,
                            "rules" : {
                                "required" : true
                            }
                        },
                        "ambassadeurName" : {
                            "inputType" : "text",
                            "value" : "",
                            "label" : "Nom de l'ambassadeur",
                            "order" : 10
                        },
                        "ambassadeurFirstName" : {
                            "inputType" : "text",
                            "value" : "",
                            "label" : "Prénom de l'ambassadeur",
                            "order" : 11
                        },
                        "ambassadeurTel" : {
                            "inputType" : "text",
                            "value" : "",
                            "label" : "Téléphone de l'ambassadeur",
                            "order" : 12
                        },
                        "ambassadeurMail" : {
                            "inputType" : "text",
                            "value" : "",
                            "label" : "E-mail de l'ambassadeur",
                            "order" : 13
                        },
                        "ambassadeurFonction" : {
                            "inputType" : "text",
                            "value" : "",
                            "label" : "Fonction de l'ambassadeur",
                            "order" : 14
                        },
                        "famille" : {
                            "inputType" : "hidden",
                            "value" : ""
                        },
                        "secteurEntreprise" : {
                            "inputType" : "hidden",
                            "value" : ""
                        },
                        "interco" : {
                            "inputType" : "hidden",
                            "value" : ""
                        },
                        "apet700" : {
                            "inputType" : "hidden",
                            "value" : ""
                        },
                        "type" : {
                            "inputType" : "hidden",
                            "value" : "",
                            "label" : "",
                            "rules" : { }
                        },
                        "email" : {
                            "rules" : {
                                "required" : true
                            }
                        },
                        "description":{
                            "order" : 23,
                            "inputType" : "textarea",
                            "markdown" : true,
                            "label" : "Description compléte"
                        },
                        "preferences[isOpenEdition]" : {
                            "inputType" : "hidden",
                            "value" : "false"
                        }

                    }
                },
                "onload" : {
                    "actions" : {
                        "siret" : true
                    }
                }
            }
        },
        "projects" : {
            "add" : true,
            "name" : "Projet",
            "createLabel" : "Ajouter une action",
            "dynFormCostum" : {
                "beforeBuild" : {
                    "properties" : {
                        "name" : {
                            "label" : "Nom de l'action"
                        },
                        "referentName" : {
                            "inputType" : "text",
                            "value" : "",
                            "label" : "Référent de l'action",
                            "order" : 4
                        },
                        "referentPhone" : {
                            "inputType" : "text",
                            "value" : "",
                            "label" : "Numéro de téléphone du référent",
                            "order" : 5
                        },
                        "yourAction" : {
                            "inputType" : "select",
                            "label" : "Votre action",
                            "placeholder" : "Choisir votre action",
                            "list" : "yourAction",
                            "optionsValueAsKey" : true,
                            "isSelect2" : true,
                            "order" : 6
                        },
                        "zoneActivity" : {
                            "inputType" : "select",
                            "value" : "",
                            "label" : "Précisez votre zone d'activités ou d'intervention",
                            "placeholder" : "Précisez votre zone d'activités ou d'intervention",
                            "list" : "zoneActivity",
                            "optionsValueAsKey" : true,
                            "isSelect2" : true,
                            "order" : 7
                        },
                        "publicCible" : {
                            "inputType" : "select",
                            "value" : "",
                            "label" : "Public(s) cible(s)",
                            "list" : "publicCible",
                            "optionsValueAsKey" : true,
                            "placeholder" : "Public(s) cible(s)",
                            "isSelect2" : true,
                            "order" : 8
                        },
                        "domain" : {
                            "inputType" : "select",
                            "value" : "",
                            "label" : "Domaine d'intervention ou d'activité",
                            "list" : "domain",
                            "optionsValueAsKey" : true,
                            "placeholder" : "Domaine d'intervention ou d'activité",
                            "isSelect2" : true,
                            "order" : 9
                        },
                        "paye" : {
                            "inputType" : "select",
                            "value" : "",
                            "label" : "Votre activité/Initiative/Solution solidaire est",
                            "list" : "paye",
                            "optionsValueAsKey" : true,
                            "placeholder" : "Votre activité/Initiative/Solution solidaire est",
                            "isSelect2" : true,
                            "order" : 10
                        },
                        "ifPaye" : {
                            "inputType" : "text",
                            "value" : "",
                            "label" : "Si activité/Initiative/Solution solidaire est payante préciser les modalités",
                            "order" : 11
                        },
                        "preferences[isOpenEdition]" : {
                            "inputType" : "hidden",
                            "value" : "false"
                        }
                    }
                }
            }
        },
        "events" : {
            "add" : true,
            "dynFormCostum" : {
                "beforeBuild" : {
                    "properties" : { 
                        "organizer" : {
                            "rules" : {
                                "required" : true
                            }
                        },
                        "theme" : {
                            "order" : 5,
                            "inputType" : "select",
                            "label" : "Choisir un thème",
                            "placeholder" : "Choisir un thème",
                            "list" : "theme",
                            "groupOptions" : false,
                            "groupSelected" : false,
                            "optionsValueAsKey":true,
                            "select2" : {
                                "multiple" : true
                            }
                        },
                        "monthEss" : {
                            "order" : 6,                            
                            "inputType" : "select",
                            "value" : "",
                            "label" : "Voulez-vous que cet événement participe au mois de l'ESS ?",
                            "list" : "yesNo",
                            "optionsValueAsKey" : true,
                            "placeholder" : "Voulez-vous que cet événement participe au mois de l'ESS ?"
                        },
                        "format" : {
                            "order" : 5,
                            "inputType" : "select",
                            "label" : "Choisir un format d'événement",
                            "placeholder" : "Choisir un format",
                            "list" : "format",
                            "groupOptions" : false,
                            "groupSelected" : false,
                            "optionsValueAsKey":true,
                            "select2" : {
                                "multiple" : false
                            }
                        },                        

                        "preferences[isOpenEdition]" : {
                            "inputType" : "hidden",
                            "value" : "false"
                        }

                    }
                },
                "formData" : "costum.cressReunion.events.formData"
            }
        },
        "ressources" : {
            "add" : true
        }
    },
    "lists" : {
        "yesNo" : [ "Oui", "Non" ],
        "paye" : [
            "Gratuite",
            "Payante" 
        ],  
        "domain" : [
            "Activité physique", 
            "Bien-être", 
            "Garde d'enfants", 
            "Communication", 
            "Divertissement", 
            "Formation", 
            "Enseignement", 
            "Alimentation", 
            "Lien social", 
            "Services", 
            "Services à la personne", 
            "Culture - Art - Spectacle", 
            "Transport et livraison", 
            "Hébergement", 
            "Assurance", 
            "Épicerie", 
            "Santé", 
            "Dépannage", 
            "Numérique", 
            "Administratif", 
            "Financier", 
            "Environnement", 
            "Recyclage"

        ],
        "publicCible" : [
            "Public(s) cible(s)",
            "Tout public", 
            "Enfant", 
            "Scolaires: élèves, professeurs", 
            "Adolescent", 
            "Personne en situation d'handicap physique", 
            "Personne en situation d'handicap mental", 
            "Personne âgées", 
            "Associations et entreprises ESS", 
            "Entreprises hors ESS", 
            "Femme", 
            "Homme", 
            "Collectivité"
        ],
        "zoneActivity" : [
            "Saint-Denis", 
            "Saint-Pierre", 
            "Bras-Panon", 
            "Cilaos", 
            "Entre-Deux", 
            "La Possession", 
            "Le Port", 
            "Les Avirons", 
            "Les Trois-Bassins", 
            "Etang-salé", 
            "La Petite île", 
            "Le Tampon", 
            "La plaine des Palmistes", 
            "Salazie", 
            "Saint-Leu", 
            "Sainte-Marie",
            "Sainte-Rose", 
            "Saint-André", 
            "Sainte-Suzanne", 
            "Saint-philippe", 
            "Saint-Louis", 
            "Saint-Paul", 
            "Saint-Benoît", 
            "Saint-Joseph", 
            "Sur toute l’île",
            "Régional",
            "National",
            "International"

        ],
        "yourAction" : [
            "était existante avant COVID 19",
            "à été créée pour répondre à un besoin pendant le COVID 19"
        ],
        "famille" : [
            "Association",
            "Coopérative",
            "Entreprise de l'ESS",
            "Fondation",
            "Mutuelle"
        ],
        "typeEtablissement" : [
            "Association non employeuse", 
            "Association employeuse", 
            "SCOP (société coopérative et participative)", 
            "SCIC (société coopérative d'intérêt collectif)", 
            "Groupement d'Employeurs", 
            "CAE (coopérative d'activités et d'emploi)", 
            "Mutuelle", 
            "Banque Coopérative", 
            "Fondation",
            "Autre Coopérative",
            "Entreprise de l'ESS"
        ],
        "arrondissement" : [
            "NORD",
            "OUEST",
            "SUD",
            "EST"
        ],
        "secteurEtablissement" : [
            "Autres intermédiations monétaires",
            "Comm. de gros céréales, tabac non manuf. et aliments pour bétail",
            "Hébergement touristique et autre hébergement de courte durée",
            "Activités des sièges sociaux",
            "Action sociale sans hébergement n.c.a.",
            "Activité des médecins généralistes",
            "Formation continue d'adultes",
            "Accueil ou accompagnement sans hébergement d'enfants handicapés",
            "Accueil accompagn. sans héberg. adultes handicapés ou pers. âgées",
            "Hébergement social pour handicapés mentaux et malades mentaux",
            "Hébergement médicalisé pour enfants handicapés",
            "Nettoyage courant des bâtiments",
            "Aide par le travail",
            "Héberg. médicalisé adultes handicapés & autre héberg. médicalisé",
            "Hébergement social pour enfants en difficultés",
            "Autres transports routiers de voyageurs",
            "Enseignement supérieur",
            "Autres assurances",
            "Culture et élevage associés",
            "Hébergement social pour adultes, familles en difficultés et autre",
            "Hébergement médicalisé pour personnes âgées",
            "Aut. accueil ou accompgnt sans hébergt d'enfants et adolescents",
            "Aide à domicile",
            "Commerces de détail d'optique",
            "Soins de beauté",
            "Enseignement primaire",
            "Autres enseignements",
            "Activités hospitalières",
            "Activités comptables",
            "Autres organisations fonctionnant par adhésion volontaire",
            "Activités juridiques",
            "Accueil de jeunes enfants",
            "Hébergement social pour handicapés physiques",
            "Transformation et conservation de fruits",
            "Enseignement secondaire technique ou professionnel",
            "Fabrication d'autres vêtements et accessoires",
            "Autres activités de soutien aux entreprises n.c.a.",
            "Services administratifs combinés de bureau",
            "Autres services personnels n.c.a.",
            "Activités des infirmiers et des sages-femmes",
            "Culture de légumes, de melons, de racines et de tubercules",
            "Restauration collective sous contrat",
            "Autres activités liées au sport",
            "Activités de clubs de sports"
        ],
        "theme" : [
            "Consommation",
            "Culture",
            "Éducation, Sensibilisation",
            "Entrepreneuriat",
            "Finance solidaire",
            "Transition écologique",
            "Santé, Social, Handicap",
            "Emploi, Insertion",
            "Égalité femmes-hommes",
            "Sport",
            "Autre"
        ],
        "format" : [
            "Physique",
            "En ligne (Webinaire, webcast, etc)",
            "Les deux, présentiel et distanciel"    
        ]
    },
    "paramsData" : {
        "poles" : {
            "MoisESS2020" : {
                "color" : "#9fd8c6"
            }
        }
    }
}