{
    
    "welcomeTpl" : "costum.views.custom.laCompagnieDesTierslieux.home",
    "sourceKey" : true,
    "slug" : "laCompagnieDesTierslieux",
    "favicon" : "/images/laCompagnieDesTierslieux/logo.png",
    "metaImg" : "/images/laCompagnieDesTierslieux/banner.png",
    "js" : {
        "urls" : [ 
            "laCompagnieDesTierslieux_index.js"
        ]
    },
    "typeObj" : {
        "organizations" : {
            "add" : true,
            "color":"dark",
            "name":"Tiers lieux",
            "dynFormCostum" : {
                "beforeBuild":{
                    "properties":{
                        "name":{
                            "label":"Nom du tiers-lieux",
                            "placeholder":"Nom du tiers-lieux"
                        },

                        "shortDescription":{
                            "order":3
                        },
                        "tags":{
                            "order":9
                        },
                        "typePlace" : {
                            "order":4,
                            "inputType" : "select",
                            "label" : "Type de lieu",
                            "placeholder" : "Choisir un type de lieu",
                            "list" :"typePlace",
                            "groupOptions" : false,
                            "groupSelected" : false,
                            "optionsValueAsKey":true,
                            "select2" : {
                                "multiple" : true
                            }
                        },
                        "services" : {
                            "inputType" : "select",
                            "order":5,
                            "label" : "Services complémentaires",
                            "placeholder" : "Choisir un services",
                            "list" : "services",
                            "groupOptions" : false,
                            "groupSelected" : false,
                            "optionsValueAsKey":true,
                            "select2" : {
                                "multiple" : true
                            }
                        },
                        "manageModel" : {
                            "inputType" : "select",
                            "order":6,
                            "label" : "Modèle de gestion",
                            "placeholder" : "Choisir un modèle",
                            "list" : "manageModel",
                            "groupOptions" : false,
                            "groupSelected" : false,
                            "optionsValueAsKey":true,
                            "select2" : {
                                "multiple" : true
                            }    
                        },
                        "state" : {
                            "inputType" : "select",
                            "label" : "Etat du projet",
                            "order":7,
                            "placeholder" : "Choisir un état d'avancement",
                            "list" : "state",
                            "groupOptions" : false,
                            "groupSelected" : false,
                            "optionsValueAsKey":true,
                            "select2" : {
                                "multiple" : true
                            }
                        },
                        "spaceSize" : {
                            "inputType" : "select",
                            "order":8,
                            "label" : "Taille de l'espace",
                            "placeholder" : "Choisir une taille",
                            "list" : "spaceSize",
                            "groupOptions" : false,
                            "groupSelected" : false,
                            "optionsValueAsKey":true,
                            "select2" : {
                                "multiple" : true
                            }
                        },
                        "description" : {
                            "inputType" : "textarea",
                            "markdown" : true,
                            "label" : "description longue"
                        },
                        "mobile":{
                            "label" : "Contact téléphone",
                            "placeholder" : "Renseigner un numéro de téléphone",
                            "inputType" : "text"
                        },
                        "mainTag" : {
                            "inputType" : "hidden"
                        }
                    }
                },
                "formData" : "costum.laCompagnieDesTierslieux.organizations.formData",
                "onload" : {
                    "actions" : {
                        "setTitle" : "Ajouter un tiers-lieux",
                        "html" : {
                            "infocustom" : ""
                        },
                        "presetValue" : {
                            "mainTag" : "TiersLieux"
                        },
                        "hide" : {
                            "publiccheckboxSimple" : 1,
                            "categoryselect":1
                        }
                    }
                }
            }
        }
    },
    "lists":{
        "typePlace":[
            "Télétravail",
            "Coworking",
            "Médiation numérique",
            "Fablab",
            "Accompagnement de projets",
            "Atelier",
            "Salle de réunion",
            "Espace à louer"
        ], 
        "services": [
            "Espace détente",
            "Cuisine",
            "Achat groupé",
            "Bar participatif",
            "Cuisine participative",
            "Epicerie participative",
            "Jardin",
            "Domiciliation",
            "Atelier participatif",
            "Restaurant",
            "Bar"
        ],
        "manageModel" : [
            "Commun",
            "Association",
            "Business",
            "Public"
        ],
        "state" : [
              "En projet",
              "En démarrage",
              "En fonctionnement"
        ],
        "spaceSize" : [
                "Moins de 60m2",
                "Entre 60 et 200m2",
                "Plus de 200m2"
        ]
    },
    "htmlConstruct" : {
        "appRendering" : "horizontal",
        "redirect" : {
            "logged" : "search",
            "unlogged" : "search"
        },
        "adminPanel" : {
            "add" : true,
            "menu":{
                "statistic" : true,
                "directory" : true,
                "community": {
                    "show":true
                },
                "reference" : {
                    "show":true,
                    "initType" : [ 
                        "organizations"
                    ]
                }
            }
        },
        "header" : {
            "menuTop" : {
                "left" : {
                    "buttonList":{
                        "logo" : {
                            "height" : 40
                        },
                        "searchBar" : true
                    }
                },
                "right" : {
                    "buttonList" : {
                        "userProfil" : {
                            "img" : true,
                            "name" : true
                        },
                        "dropdown" : {
                            "connected":true,
                            "buttonList":{
                                "admin" : true,
                                "settings" : true,
                                "logout" : true
                            }
                        },
                        "login" : true,
                        "map" : true
                    }
                }
            }
        },
        "menuBottom" : {
            "buttonList":{
                "add" : {
                    "label" : "Ajouter un tiers-lieu"
                }
            }
        },
        "element" : {
            "initView" : "detail",
            "js" : "pageProfil.js",
            "css" : "pageProfil.css",
            "menuLeft" : {
                "detail" : true,
                "gallery": false,
                "community" : true,
                "events" : false,
                "ressources" : false
            },
            "menuTop" : {
                "img":true,
                "btnGroup" : {
                    "imgProfil":true,
                    "nameProfil":true,
                    "newspaper" : false,
                    "cospace":false,
                    "chat":false,
                    "create":false,
                    "params" : {
                        "dropdown":{
                            "history" : true,
                            "settings" : true,
                            "mindmap" : true,
                            "delete" : true,
                            "confidentialityCommunity":true,
                            "notificationsCommunity":false
                        }
                    }
                }
                
            }
        }
    },
    "css" : {
        "urls" : [ 
            "laCompagnieDesTierslieux_index.css",
            "laCompagnieDesTierslieux_filters.css"
        ],
        "loader" : {
            "background" : "white",
            "ring1" : {
                "color" : "#000",
                "height" : 360,
                "width" : 360,
                "left" : -15,
                "borderWidth" : 4,
                "top" : -35
            },
            "ring2" : {
                "color" : "#fada30",
                "height" : 350,
                "width" : 350,
                "left" : -10,
                "borderWidth" : 5,
                "top" : -30
            }
        },
        "progress" : {
            "value" : {
                "background" : "#fada30"
            },
            "bar" : {
                "background" : "#fff"
            }
        },
        "menuTop" : {
            "background" : "white",
            "button" : {
                "paddingTop" : 0,
                "fontSize" : 30,
                "color" : "#000"
            },
            "badge" : {
                "background" : "#337ab7",
                "border" : "1px solid white"
            },
            "scopeBtn" : {
                "display" : "none"
            },
            
            "connectBtn" : {
                "background" : "#000",
                "color" : "white",
                "fontSize" : 18,
                "borderRadius" : 10,
                "padding" : "8px 15px"
            }
        },
        "menuApp" : {
            "display" : "none",
            "top" : "58",
            "background" : "#ef5b2b",
            "button" : {
                "fontSize" : 25,
                "color" : "#fff",
                "hover" : {
                    "borderBottom" : "2px solid #fff"
                }
            }
        },
        "button" : {
            "footer" : {
                "add" : {
                    "bottom" : 30,
                    "left" : 15,
                    "background" : "black",
                    "color" : "white",
                    "position" : "absolute",
                    "fontSize" : 18,
                    "padding" : "5px"
                }
            }
        },
        "color" : {
            "green" : "#93C020",
            "blue" : "#3595a8",
            "dark" : "#161315"
        }
    },
    "app" : {
        "#search" : {
            "subdomainName" : "Les projets",
            "icon" : "search",
            "filterObj":"costum.views.custom.laCompagnieDesTierslieux.filters",
            "useFilter" : true,
            "useHeader" : false,
            "showMap":true,
            "filters" : {
                "types" : [ 
                    "organizations"
                ]
            },
            "searchObject" : {
                "indexStep" : "0"
            }
        },
        "#dashboard" :{
            "hash" : "#co.dashboard",
            "icon" : "tachometer",
            "module":"costum",
            "urlExtra" : "/url/costum.views.co.dashboard",
            "useHeader" : true,
            "useFilter" : false,
            "useFooter" : true,
            "inMenu" : true,
            "dropdownResult":true,
            "subdomainName" : "En chiffres",
            "filters" : {
                "types" : [ 
                    "projects"
                ],
                "category" : "ficheAction"
            },
            "placeholderMainSearch" : "what are you looking for ?",
            "useMapBtn":false
        }
    },
    "map" : {
        "menuRight":false,
        "forced":{
            "latLon" : [ 
                50.09944,
                2.94987
            ],
            "zoom":8
        }
    },
    "filters" : {
        "searchTypeGS" : [ 
            "organizations", 
            "citoyens"
        ],
        "sourceKey" : true

    }
}