{
    "_id" : ObjectId("5c8f7cd7eb7028b0f0c7d3db"),
    "slug" : "lila",
    "welcomeTpl" : "costum.views.custom.lila.home",
    "sourceKey" : true,
    "favicon" : "/images/lila/icon.png",
    "metaImg" : "/images/lila/banner.png",
    "logoMin" : "/images/lila/icon.png",
    "css" : {
        "font" : {
            "url" : "/font/pactePourLaTransition/fengardoneue_regular-webfont.ttf"
        },
        "loader" : {
            "background" : "white",
            "ring1" : {
                "color" : "#5b2649",
                "height" : 360,
                "width" : 360,
                "left" : -15,
                "borderWidth" : 4,
                "top" : -35
            },
            "ring2" : {
                "color" : "#fea621",
                "height" : 350,
                "width" : 350,
                "left" : -10,
                "borderWidth" : 5,
                "top" : -30
            }
        },
        "progress" : {
            "value" : {
                "background" : "#5b2649"
            },
            "bar" : {
                "background" : "#fff"
            }
        },
        "menuTop" : {
            "background" : "white",
            "button" : {
                "paddingTop" : 0,
                "fontSize" : 30,
                "color" : "#5b2649"
            },
            "scopeBtn" : {
                "color" : "#5b2649"
            },
            "filterBtn" : {
                "color" : "#5b2649"
            },
            "badge" : {
                "background" : "#5b2649",
                "border" : "1px solid white"
            },
            "connectBtn" : {
                "background" : "#5b2649",
                "color" : "white",
                "fontSize" : 18,
                "borderRadius" : 10,
                "padding" : "8px 15px"
            }
        },
        "menuApp" : {
            "background" : "#5b2649",
            "button" : {
                "fontSize" : 25,
                "color" : "#fff",
                "hover" : {
                    "borderBottom" : "2px solid #fff"
                }
            }
        },
        "button" : {
            "footer" : {
                "add" : {
                    "bottom" : 60,
                    "background" : "transparent",
                    "color" : "white"
                },
                "toolbarAdds" : {
                    "bottom" : 50
                }
            }
        },
        "color" : {
            "purple" : "#5b2649"
        }
    },
    "htmlConstruct" : {
        "appRendering" : "vertical",
        "header" : {
            "menuTop" : {
                "navLeft" : {
                    "logo" : {
                        "height" : 70
                    },
                    "searchBar" : true,
                    "useFilter" : {
                        "scopeFilter" : true,
                        "showFilter" : true
                    }
                },
                "navRight" : {
                    "connected" : {
                        "dropdownUser" : {
                            "languages" : true,
                            "statistics" : false,
                            "documentation" : false,
                            "donate" : false,
                            "admin" : true,
                            "settings" : false,
                            "logout" : true
                        },
                        "userProfil" : {
                            "img" : true
                        },
                        "networkFloop" : true,
                        "notifications" : true,
                        "dda" : false,
                        "chat" : true,
                        "home" : false,
                        "app" : false
                    },
                    "disconnected" : {
                        "languages" : true,
                        "login" : true
                    }
                }
            }
        },
        "subMenu" : {
            "fontSize" : 40,
            "app" : true,
            "button" : true
        },
        "footer" : {
            "add" : true,
            "donate" : {
                "url" : "https://www.helloasso.com/associations/collectif-pour-une-transition-citoyenne/formulaires/2",
                "label" : "Participer à notre cagnotte"
            }
        },
        "adminPanel" : {
            "add" : true,
            "statistic" : true,
            "directory" : true,
            "community" : true,
            "reference" : {
                "initType" : [ 
                    "organizations"
                ]
            }
        },
        "directoryViewMode" : "block",
        "directory" : {
            "header" : {
                "map" : false,
                "viewMode" : false,
                "add" : true
            },
            "results" : {
                "proposals" : {
                    "defaultImg" : "/images/pactePourLaTransition/default_directory.png"
                },
                "organizations" : {
                    "defaultImg" : "/images/pactePourLaTransition/default_directory.png"
                }
            },
            "footer" : {
                "add" : true
            }
        },
        "element" : {
            "initView" : "pacte",
            "menuTop" : {
                "cospace" : true,
                "news" : true,
                "community" : true,
                "detail" : true,
                "params" : {
                    "history" : true,
                    "slug" : true,
                    "delete" : true
                }
            }
        },
        "redirect" : {
            "logged" : "welcome",
            "unlogged" : "welcome"
        }
    },
    "app" : {
        "#dda" : {
            "subdomainName" : "Les mesures",
            "placeholderMainSearch" : "what are you looking for ?"
        },
        "#search" : {
            "icon" : "group",
            "subdomainName" : "Les groupes du pactes",
            "placeholderMainSearch" : "what are you looking for ?",
            "filters" : {
                "type" : "Group"
            }
        },
        "#map" : {
            "icon" : "map",
            "inMenu" : true,
            "hash" : "#network",
            "open" : "true",
            "slug" : "siteDuPactePourLaTransition",
            "subdomainName" : "La carte des groupes",
            "placeholderMainSearch" : "what are you looking for ?"
        },
        "#live" : {
            "subdomainName" : "Transition en live",
            "placeholderMainSearch" : "what are you looking for ?",
            "sourceKey" : true,
            "formCreate" : true,
            "useFilter" : false
        }
    },
    "modules" : {
        "dda" : {
            "name" : "PACTE",
            "icon" : "fa-handshake-o",
            "documentTitle" : "Contrats signés",
            "addDocumentBtn" : "Ajouter un Contrat",
            "noDocuments" : "Aucun Contrat signé",
            "hide" : {
                "menuProposals" : 1,
                "menuActions" : 1,
                "menuRoomProps" : 1
            },
            "tpls" : {
                "home" : "dda.views.custom.siteDuPactePourLaTransition.home"
            }
        }
    },
    "typeObj" : {
        "citoyens" : {
            "color" : "yellow-k",
            "name" : "Mesure",
            "add" : true,
            "createLabel" : "Inviter vos amis"
        },
        "proposals" : {
            "color" : "purple",
            "name" : "Mesure",
            "add" : "onlyAdmin",
            "createLabel" : "Ajouter une mesure",
            "dynFormCostum" : {
                "onload" : {
                    "actions" : {
                        "formatAmendVote" : 1,
                        "adminOnly" : {
                            "producerfinder" : 1
                        },
                        "setTitle" : 1,
                        "html" : {
                            "titletext>label" : "Enoncé de la mesure",
                            "infocustom" : "<br/>Le Pacte pour la Transition traite des politiques locales. Assurez-vous que les mesures que vous proposez puissent être mises en oeuvre par les communes et intercommunalités."
                        },
                        "presetValue" : {
                            "voteDateEnd" : "28/02/2019 23:59"
                        },
                        "hide" : {
                            "voteDateEnddatetime" : 1,
                            "urlsarray" : 1
                        }
                    }
                }
            }
        },
        "room" : {
            "color" : "purple",
            "createLabel" : "Ajouter un PACTE",
            "dynFormCostum" : {
                "onload" : {
                    "actions" : {
                        "html" : {
                            "modal-title" : "<i class='fa fa-user'></i>Ajouter un candidat",
                            "infocustom" : "<br/>Un Pacte pour la Transition est rattaché à un candidat à qui allez associer les niveaux d'engagment qu'ils vous aura communiqué",
                            "nametext>label" : "<i class='fa fa-chevron-down'></i> Nom du Candidat"
                        },
                        "hide" : {
                            "rolestags" : 1
                        }
                    }
                }
            }
        },
        "organizations" : {
            "color" : "azure",
            "name" : "Groupe",
            "add" : true,
            "createLabel" : "Créer un groupe sur le pacte",
            "dynFormCostum" : {
                "onload" : {
                    "actions" : {
                        "setTitle" : "Créer votre groupe",
                        "html" : {
                            "nametext>label" : "Créer votre groupe",
                            "infocustom" : "<br/>Dans un premier temps, veuillez inviter au moins une personne pour pouvoir former un groupe local valable sur un territoire"
                        },
                        "presetValue" : {
                            "type" : "Group",
                            "role" : "admin"
                        },
                        "hide" : {
                            "typeselect" : 1,
                            "roleselect" : 1,
                            "urlsarray" : 1
                        },
                        "required" : {
                            "locality" : 1
                        }
                    }
                }
            }
        }
    },
    "searchOpenMenu" : [ 
        {
            "url" : "#dda",
            "msg" : "Toutes les mesures"
        }, 
        {
            "url" : "#search",
            "msg" : "Tous les groupes"
        }
    ]
}