{ 
    "welcomeTpl" : "costum.views.custom.meuseCampagnes.home",
    "sourceKey" : true,
    "slug" : "meuseCampagnes",
    "favicon" : "/ico/meuseCampagnes/favicon.ico",
    "metaImg" : "/images/meuseCampagnes/logo.png",
    "js" : {
        "urls" : [ 
            "meuseCampagnes_index.js"
        ]
    },
    "themeObj" : {
        "firstLoad" : false
    },
    "typeObj" : {
        "organizations" : {
            "add" : true,
            "dynFormCostum" : {
                "onload" : {
                    "presetValue" : {
                         "preferences[isOpenEdition]":false
                    }
                }
            }
        },
        "projects" : {
            "add" : true,
            "dynFormCostum" : {
                "onload" : {
                    "presetValue" : {
                         "preferences[isOpenEdition]":false
                    }
                }
            }
        },
        "citoyens" : {
            "add" : true
        },
        "events" : {
            "add" : true,
            "dynFormCostum" : {
                "onload" : {
                    "presetValue" : {
                         "preferences[isOpenEdition]":false
                    }
                }
            }
        },
        "classifieds" : {
            "add" : true
        },
        "ressources" : {
            "add" : true
        },
        "poi" : {
            "add" : true
        },
        "jobs" : {
            "add" : false
        },
        "proposals" : {
            "add" : true
        }
    },
    "htmlConstruct" : {
        "loadingModal" : {
            "url" : "costum.views.custom.meuseCampagnes.firstLoad"
        },    
        "appRendering" : "vertical",
        "redirect" : {
            "logged" : "welcome",
            "unlogged" : "welcome"
        },
        "adminPanel" : {
             "js":true,
            "add" : true,
            "menu":{
                "statistic" : true,
                "directory" : true,
                "community":{"show":true},
                "reference" : {"show":true},
                "importorga" : {
                    "label": "Import des organisations",
                    "icon" : "upload",
                    "view" : "importorga",
                    "class" : "text-green"
                },
                "importevent" : {
                    "label": "Import des événements",
                    "icon" : "upload",
                    "view" : "importevent",
                    "class" : "text-orange"
                },
                "stattrim" :{
                    "label":"Statisques trimestriels",
                    "class":"text-purple",
                    "view":"stattrim",
                    "icon":"bar-chart"
                }
            }
        },
        "header" : {
            "menuTop" : {
                "left" : {
                    "buttonList":{
                        "xsMenu":{
                            "buttonList":{
                                "app":{
                                    "label":true,
                                    "spanTooltip":false,
                                    "buttonList":{
                                        "#search": true,
                                        "#live":true,
                                        "#agenda": true,
                                        "#annonces":true,
                                        "#dda":true
                                    }
                                },
                                "add":{
                                    "label":"Ajouter"
                                }
                            }
                        },
                        "logo" : {
                            "height" : 60
                        },
                        "searchBar" : {
                            "addClass":"margin-top-10"
                        }
                    }
                },
                "right" : {
                    "buttonList":{
                        "home" : {
                            "label":"",
                            "spanTooltip":"Home",
                            "icon":"home"
                        },
                        "chat" : true,
                        "notifications" : true,
                        "networkFloop" : true,
                        "userProfil" : {
                            "img" : true,
                            "name" : true
                        },
                        "dropdown" : {
                            "connected":true,
                            "buttonList":{
                                "languages" : true,
                                "admin" : true,
                                "logout" : true
                            }
                        },
                        "languages" : {"connected":false},
                        "login" : true
                    }
                }
            }
        },
        "menuLeft":{
            "buttonList":{
                "app":{
                    "buttonList":{
                        "#search": true,
                        "#live":true,
                        "#agenda": true,
                        "#annonces":true,
                        "#dda":true
                    }
                },
                "add":true
            }
        },
        "element" : {
            "initView" : "detail",
            "menuLeft" : {
                "buttonList":{
                    "answerInvitation":true,
                    "linksBtn":true,
                    "invite":true,
                    "detail" : true,
                    "community" : true,
                    "gallery" : true,
                    "events" : true,
                    "projects" : true,
                    "ressources" : true,
                    "classifieds" : true,
                    "jobs" : true
                }
            },
            "menuTop" : {
                "left":{
                    "buttonList":{
                        "imgUploader":true
                    }
                },
                "right":{
                    "buttonList" : {
                        "imgProfil":true,
                        "nameProfil":true,
                        "newspaper" : true,
                        "cospace":true,
                        "chat":true,
                        "create":true,
                        "dropdown":{
                            "buttonList":{
                                "history" : true,
                                "settings" : true,
                                "settingsCommunity" : true,
                                "mindmap" : true,
                                "editSlug" : true,
                                "delete" : true
                            }
                        }
                    }
                }
            }
        },
        "footer" : {
            "url" : "costum.views.custom.meuseCampagnes.footer"
        },
        "menuBottom" : {
            "add" : true,
            "donate" : false
        }
    },
    "css" : {
        "urls" : [ 
            "meuseCampagnes_index.css"
        ],
        "loader" : {
            "background" : "white",
            "ring1" : {
                "color" : "#a34a08",
                "height" : 360,
                "width" : 360,
                "left" : -15,
                "borderWidth" : 4,
                "top" : -35
            },
            "ring2" : {
                "color" : "#4797cc",
                "height" : 350,
                "width" : 350,
                "left" : -10,
                "borderWidth" : 5,
                "top" : -30
            }
        },
        "progress" : {
            "value" : {
                "background" : "#4797cc"
            },
            "bar" : {
                "background" : "#fff"
            }
        },
        "menuTop" : {
            "background" : "white",
            "button" : {
                "paddingTop" : 0,
                "fontSize" : 25,
                "color" : "#a34a08"
            },
            "badge" : {
                "background" : "#337ab7",
                "border" : "1px solid white"
            },
            "scopeBtn" : {
                "color" : "#4797cc",
                "hover" : {
                    "color" : "#a34a08",
                    "border" : "1px solid #a34a08"
                }
            },
            "filterBtn" : {
                "color" : "#4797cc",
                "hover" : {
                    "color" : "#a34a08",
                    "border" : "1px solid #a34a08"
                }
            },
            "connectBtn" : {
                "background" : "#a34a08",
                "color" : "white",
                "fontSize" : 18,
                "borderRadius" : 10,
                "padding" : "8px 15px"
            }
        },
        "menuLeft" : {
            "background" : "white",
            "button" : {
                "fontSize" : 25,
                "hover" : {
                    "color" : "#a34a08",
                    "borderBottom" : "2px solid #a34a08"
                }
            }
        },
        "button" : {
            "footer" : {
                "add" : {
                    "bottom" : 50,
                    "background" : "transparent",
                    "color" : "#a34a08"
                }
            }
        },
        "color" : {
            "brown" : "#aa4420",
            "green" : "#93C020",
            "blue" : "#3595a8",
            "dark" : "#444"
        }
    },
    "app" : {
        "#search" : {
            "subdomainName" : "Les acteurs et leurs initiatives",
            "icon" : "search",
            "filters" : {
                "types" : [ 
                    "organizations", 
                    "projects",
                    "poi"
                ]
            }
        },
        "#agenda" : {
            "subdomainName" : "Agenda",
            "placeholderMainSearch" : "what are you looking for ?"
        },
        "#annonces" : {
            "subdomainName" : "Petites annonces",
            "icon" : "bullhorn"
        },
        "#live" : {
            "subdomainName" : "Actualité",
            "icon" : "newspaper-o"
        },
        "#dda" : {
            "subdomainName" : "Agora citoyenne",
            "icon" : "list"
        }
    },
    "scopeSelector" : {
        "cities" : [ 
            "577b9f5994ef4776287b25aa", 
            "577b9f1294ef4776287b256a", 
            "577b9f6f94ef4776287b25bb"
        ]
    },
    "map" : {
        "defaultPos" : [
            50.61754, 
            5.00162
        ]
    },
    "filters" : {
        "searchTypeGS" : [ 
            "organizations", 
            "projects", 
            "events", 
            "annonces"
        ]
    }
}