{
    "welcomeTpl" : "costum.views.custom.OpenAtlas.home",
    "sourceKey" : true,
    "slug" : "OpenAtlas",
    "favicon" : "/images/OpenAtlas/logo-openatlas.png",
    "metaImg" : "/images/OpenAtlas/logo-openatlas.png",
    "logoMin" : "/images/OpenAtlas/logo-openatlas.png",
    "logo" : "/images/OpenAtlas/logo-openatlas.png",
    "colors" : {
        "green" : "#9ec72d",
        "grey" : "#f6f6f6",
        "dark" : "#354C57",
        "blue" : "#18bce2",
        "pink" : "#E4394D"
    },
    "js" : {
        "urls" : [ 
            "OpenAtlas_index.js"
        ]
    },
    "css" : {
        "urls" : [
            "main.css"
        ],
        "loader" : {
            "background" : "white",
            "ring1" : {
                "color" : "this.colors.pink",
                "height" : 360,
                "width" : 360,
                "left" : -15,
                "borderWidth" : 4,
                "top" : -35
            },
            "ring2" : {
                "color" : "this.colors.dark",
                "height" : 350,
                "width" : 350,
                "left" : -10,
                "borderWidth" : 5,
                "top" : -30
            }
        },
        "progress" : {
            "value" : {
                "background" : "this.colors.pink"
            },
            "bar" : {
                "background" : "#fff"
            }
        },
        "menuTop" : {
            "background" : "white",
            "button" : {
                "paddingTop" : 1,
                "fontSize" : 25,
                "color" : "black"
            },
            "badge" : {
                "display" : "none"
            },
            "scopeBtn" : {
                "display" : "none"
            },
            "filterBtn" : {
                "display" : "none"
            },
            "connectBtn" : {
                "background" : "#5b2649",
                "color" : "white",
                "fontSize" : 13,
                "borderRadius" : 10,
                "padding" : "8px 15px"
            }
        },
        "menuApp" : {
            "background" : "white",
            "fontSize" : 15,
            "button" : {
                "color" : "#213533",
                "hover" : {
                    "background" : "#FFF"
                }
            }
        },
        "button" : {
            "footer" : {
                "add" : {
                    "background" : "#9ec72d",
                    "color" : "white",
                    "fontSize" : 26
                },
                "toolbarAdds" : {
                    "bottom" : 30
                }
            }
        },
        "color" : {
            "purple" : "this.colors.pink"
        }
    },
    "filters" : {
        "sourceKey" : true
    },
    "htmlConstruct" : {
        "appRendering" : "vertical",
        "adminPanel" : {
            "js":true,
            "add" : true,
            "menu" : {
                "directory" : true,
                "statistic" : true,
                "converter" : true,
                "import" : true,
                "community":{
                    "show": true
                },
                "reference" : {
                    "show": true
                },
                "donation" : {
                    "label": "Les dons confirmés",
                    "icon" : "creative-commons",
                    "view" : "communs",
                    "class" : "text-blue"
                },
                "pledge" : {
                    "show":true,
                    "label" : "Promesses de don",
                    "class" : "text-yellow"
                }
            }
        },
        "element" : {
            "tplCss":[
                "v1.0_pageProfil.css"
            ],
            "banner":"co2.views.element.bannerHorizontal",
            "containerClass":{
                "centralSection":"col-xs-12 col-lg-10 col-lg-offset-1"
            },
            "menuTop":{
                "class":"col-xs-12",
                "left":{
                    "class":"col-lg-3 col-md-3 col-sm-4 hidden-xs no-padding",
                    "buttonList":{
                        "imgUploader":true
                    }   
                },      
                "right":{
                    "class": "col-md-12 col-sm-12 col-lg-12 col-xs-12 text-center",
                    "buttonList":{
                        "xsMenu":{
                            "class":"visible-xs",
                            "buttonList":{
                                "detail":true,
                                "newspaper":true
                            }
                        },
                        "imgProfil":true,
                        "nameProfil":true,
                        "newspaper":true,
                        "detail":true,
                        "gallery":true,
                        "community":true,
                        "events":true,
                        "create":{
                            "class":"text-green-k visible-xs"
                        },
                        "chat":{
                            "class":"text-red visible-xs"
                        },
                        "share":true,
                        "params":{
                            "buttonList":{
                                "settings":true
                            }
                        }
                    }   
                }
            }
        },
        "redirect" : {
            "logged" : "welcome",
            "unlogged" : "welcome"
        }
    },
    "app" : {},
    "typeObj" : {
        "projects" : {
            "add" : true
        },
        "events" : {
            "add" : true
        },
        "proposals" : {
            "add" : true
        },
      
        "crowdfunding" : {
            "name" : "Campagne",
            "add" : "onlyAdmin",
            "icon" : "users",
            "createLabel" : "Campagne",
            "color" : "yellow",
            "dynFormCostum" : {
                "beforeBuild" : {
                    "properties" : {
                        "goal" : {
                            "inputType" : "text",
                            "label" : "Objectif de la campagne",
                            "placeholder" : "Montant visé",
                            "rules" : {}
                        }
                    }
                },
                "onload" : {
                    "actions" : {
                        "setTitle" : "<span class='text-title'>Ajouter une campagne</span>",
                        "html" : {
                            "infocustom" : ""
                        },
                        "hide" : {
                            "directDonationcheckboxSimple" : 1
                        },
                        "presetValue" : {
                            "type" : "campaign"
                        }
                    }
                }
            }
        },
        "donation" : {
            "name" : "Devenir sociétaire",
            "sameAs" : "crowdfunding",
            "add" : true,
            "createLabel" : "Devenir sociétaire",
            "color" : "blue",
            "icon" : "money",
            "dynFormCostum" : {
                "beforeBuild" : {
                    "properties" : {
                            "behalf" : {
                                "label" : "Faites-vous un don au nom d'une structure ?",
                                "params" : {
                                    "onText" : "Oui",
                                    "offText" : "Non",
                                    "labelInformation" : ""
                                },
                                "inputType" : "checkboxSimple",
                                "checked" : false,
                                "order" : 1
                            },
                            "orgaName" : {
                                "inputType" : "text",
                                "label" : "Nom de votre structure",
                                "order" : 3
                            },
                            "similarLink" : {
                                "order" : 2
                            },
                            "invoiceName" : {
                                "inputType" : "text",
                                "label" : "Raison sociale pour la facturation (changez si nécessaire)",
                                "placeholder" : "",
                                "order" : 18
                            },
                            "invoiceAddress" : {
                                "inputType" : "textarea",
                                "label" : "Adresse du siège social pour la facturation",
                                "placeholder" : "",
                                "order" : 19
                            },
                            "invoiceSiret" : {
                                "inputType" : "text",
                                "label" : "SIRET pour la facturation",
                                "placeholder" : "",
                                "order" : 20
                            },
                            "publicDonationData" : {
                                "label" : "Acceptez-vous que l’information de votre contribution financière soit publique ?",
                                "params" : {
                                    "onText" : "Oui",
                                    "offText" : "Non",
                                    "onLabel" : "Publique",
                                    "offLabel" : "Privée",
                                    "labelInformation" : "Nous cherchons à montrer que les acteurs des tiers-lieux investissent dans leurs ressources, les nommer permet de mieux incarner ce propos et de rassurer des lieux et organisations qui sont moins proches de cette culture ou de ces réseaux."
                                },
                                "inputType" : "checkboxSimple",
                                "checked" : true,
                                "order" : 22
                            },
                            "donationLink" : {
                                "inputType" : "finder",
                                "label" : "Structure donatrice",
                                "initType" : [
                                    "organizations"
                                ],
                                "initMe" : false,
                                "update" : false,
                                "order" : 23
                            },   
                        "associate" : {
                            "inputType" : "select",
                            "label" : "Type d'associés et droit",
                            "placeholder" : "Choisir en fonction de votre situation",
                            "list" :"associate",
                            "groupOptions" : true,
                            "groupSelected" : false,
                            "optionsValueAsKey":false,
                            "select2" : {
                                "multiple" : false
                            },
                            "rules" : {
                                "required" : true
                            },
                            "order" : 9
                        }
                    }
                },
                "beforeSave" : "costum[costum.slug].donation.beforeSave",
                "afterSave" : "costum[costum.slug].donation.afterSave",
                "afterBuild" : "costum[costum.slug].donation.afterBuild",
                "onload" : {
                    "actions" : {
                        "setTitle" : "<span class='text-title'>Promesse d'achat de part sociale</span>",
                        "html" : {
                            "infocustom" : "Participez au capital social et devenez sociétaire de la coopérative Open Atlas"
                        },
                        "presetValue" : {
                            "type" : "pledge"
                        },
                        "hide" : {
                            "receiverfinder" : 1,
                            "parentfinder" : 1,
                            "donationLinkfinder" : 1
                        }
                    }
                }

            }
        }
    },
    "lists" : {        
        "associate" : {
            "Acteurs producteurs" : {
                "Prestataire" : "Prestataire",
                "Bénévole ponctuel et actif" : "Bénévole ponctuel et actif",
                "Salarié" : "Salarié"
            },
            "Bénéficiaires" : {
                "Habitant AMIS ou COPains COAmbassadeur" : "Habitant AMIS ou COPains COAmbassadeur",
                "PETIT Acteur d’intérêt général (CA -50K€) ASSO COOP ESUS" : "PETIT Acteur d’intérêt général (CA -50K€) ASSO COOP ESUS",
                "ROS Acteur d’intérêt general (CA +50K€)" : "GROS Acteur d’intérêt general (CA +50K€)",
                "PETIT Acteur d’intérêt privé (CA -50K€)" : "PETIT Acteur d’intérêt privé (CA -50K€)",
                "Acteur d’intérêt privé (CA +50K€)" : "Acteur d’intérêt privé (CA +50K€)"
            }
        }    
    },
    "mapping" : {
        "Prestataire" : "150",
        "Bénévole ponctuel et actif" : "30",
        "Salarié" : "30",
        "Habitant AMIS ou COPains COAmbassadeur" : "60",
        "PETIT Acteur d’intérêt général (CA -50K€) ASSO COOP ESUS" : "300",
        "GROS Acteur d’intérêt general (CA +50K€)" : "750",
        "PETIT Acteur d’intérêt privé (CA -50K€)" : "750",
        "Acteur d’intérêt privé (CA +50K€)" : "2250"
    }
}

