{
    "welcomeTpl" : "costum.views.custom.smarterritoireautre.home",
    "isTemplate" : true,
    "sourceKey" : true,
    "slug" : "smarterritoireautre",
    "favicon" : "/ico/smarterritoireautre/favicon.ico",
    "metaImg" : "/images/smarterritoireautre/logo.png",
    "logoMin" : "/images/smarterritoireautre/logo.png",
    "logo" : "/images/smarterritoireautre/logo.png",
    "js" : {
        "urls" : [ 
            "smarterritoireautre_index.js"
        ]
    },
    "htmlConstruct" : {
        "appRendering" : "vertical",
        "redirect" : {
            "logged" : "welcome",
            "unlogged" : "welcome"
        },
        "header" : {
            "menuTop" : {
                "navLeft" : {
                    "logo" : {
                        "height" : 30
                    },
                    "searchBar" : false,
                    "useFilter" : {
                        "scopeFilter" : false,
                        "showFilter" : false
                    }
                },
                "navRight" : {
                    "connected" : {
                        "dropdownUser" : {
                            "languages" : false,
                            "statistics" : false,
                            "documentation" : false,
                            "donate" : false,
                            "admin" : true,
                            "settings" : false,
                            "logout" : true
                        },
                        "userProfil" : {
                            "img" : true
                        },
                        "networkFloop" : false,
                        "notifications" : false,
                        "dda" : false,
                        "chat" : true,
                        "home" : false,
                        "app" : false
                    },
                    "disconnected" : {
                        "languages" : false,
                        "login" : true
                    }
                }
            },
            "logo" : "",
            "bannerImg" : "this.profilRealBannerUrl"
        },
        "directory" : {
            "results" : {
                "organizations" : {
                    "defaultImg" : "/images/smarterritoireautre/default_directory.png"
                },
                "projects" : {
                    "defaultImg" : "/images/smarterritoireautre/default_directory.png"
                },
                "events" : {
                    "defaultImg" : "/images/smarterritoireautre/default_directory.png"
                }
            },
            "preview" : true,
            "footer" : {
                "add" : true
            }
        },
        "footer" : {
            "url" : "costum.views.custom.costumDesCostums.footer"
        },
        "element" : {
            "js" : "pageProfil.js",
            "css" : "pageProfil.css",
            "initView" : "newspaper",
            "headerInfos": "costum.views.custom.smarterritoireautre.element.headerInfos"
        },
            "menuLeft" : {
                "detail" : true,
                "gallery" : true,
                "events" : true,
                "projects" : true,
                "community" : true
            },
            "menuTop" : {
                "img" : true,
                "btnGroup" : {
                    "imgProfil" : true,
                    "nameProfil" : true,
                    "newspaper" : true,
                    "cospace" : false,
                    "chat" : false,
                    "create" : true,
                    "params" : {
                        "dropdown" : true
                    }
                },
                "navRight" : {
                    "connected" : {
                        "dropdownUser" : {
                            "languages" : true,
                            "statistics" : false,
                            "documentation" : false,
                            "donate" : false,
                            "admin" : true,
                            "settings" : false,
                            "logout" : true
                        },
                        "userProfil" : {
                            "img" : true
                        },
                        "networkFloop" : true,
                        "notifications" : false,
                        "dda" : false,
                        "chat" : true,
                        "home" : true,
                        "app" : false
                    },
                    "disconnected" : {
                        "languages" : true,
                        "login" : true,
                        "app" : false
                    }
                }
            }
        },
        "menuBottom" : {
            "add" : true
        },
    "css" : {
        "urls" : [
            "smarterritoireautre_index.css"
        ],
        "loader" : {
            "background" : "white",
            "ring1" : {
                "color" : "#00B2BA",
                "height" : 500,
                "width" : 500,
                "left" : -15,
                "borderWidth" : 4,
                "top" : -35
            },
            "ring2" : {
                "color" : "#93C021",
                "height" : 480,
                "width" : 480,
                "left" : -10,
                "borderWidth" : 5,
                "top" : -30
            }
        },
        "progress" : {
            "value" : {
                "background" : "#313757"
            },
            "bar" : {
                "background" : "red"
            }
        },
        "menuTop" : {
            "background" : "#fcfdfd",
            "button" : {
                "paddingTop" : 0,
                "fontSize" : 20,
                "color" : "#2f3e4f"
            },
            "badge" : {
                "background" : "#497614",
                "border" : "3px solid white"
            },
            "scopeBtn" : {
                "display" : "none"
            },
            "filterBtn" : {
                "display" : "none"
            },
            "connectBtn" : {
                "background" : "#313757",
                "color" : "white",
                "fontSize" : 18,
                "borderRadius" : 10,
                "padding" : "8px 15px"
            }
        },
        "menuApp" : {
            "top" : "50",
            "background" : "#f6f6f6",
            "button" : {
                "fontSize" : 25,
                "color" : "#41445c",
                "hover" : {
                    "borderBottom" : "2px solid #fff"
                }
            }
        },
        "button" : {
            "footer" : {
                "add" : {
                    "bottom" : 10,
                    "background" : "transparent",
                    "color" : "black"
                },
                "toolbarAdds" : {
                    "bottom" : 10
                }
            }
        },
        "color" : {
            "blue" : "#354d57",
            "bg-green" : "#92bf34"
        }
    },
    "typeObj" : {
            "projects" : {
                "add" : true
            },
            "events" : {
                "add" : true
            }
        },
    "app" : {
       "#searchEvent" : {
            "hash" : "#app.search",
            "icon" : "search",
            "header": "costum.views.custom.smarterritoireautre.filters",
            "urlExtra" : "/page/searchEvent",
            "subdomainName" : "search",
            "placeholderMainSearch" : "what are you looking for ?",
            "inMenu":true,
            "useHeader" : false,
            "useFilter" : true,
            "useFooter" : true,
            "filters" : { 
                "types" : [ 
                    "organizations"
                ]
            },
            "searchObject" : {  
                "indexStep" : "0" 
            }
        },
        "#live" : {
            "subdomainName" : "Actualités",
            "inMenu" : true,
            "inMenuLeft"  :true,
            "slug" : "<?php echo Yii::app()->session['costum']['contextSlug']; ?>",
            "formCreate" : false,
            "useFilter" : false,
            "viewMode" : "list",
            "inMenuTop" : false
        },
        "#documentation": {
            "hash" : "#app.view",
            "icon" : "",
            "urlExtra" : "/page/smarterre/url/costum.views.custom.costumDesCostums.documentation",
            "subdomainName" : "",
            "inMenuTop" : false,
            "useHeader": true,
            "useFooter" : true,
            "useFilter" : false,
            "inMenu" : false
        },
        "#agenda" : {
            "subdomainName" : "Agenda",
            "useFilter" : false,
            "inMenuTop" : false
        }
    },
    "lists":{
        "domainAction":{
            "type":"badges",
            "category":"domainAction",
            "sourceKey":true
        }
    }
}