{
    "host" : "www.terramies.fr",
    "welcomeTpl" : "costum.views.custom.terramies.home",
    "sourceKey" : true,
    "slug" : "terramies",
    "favicon" : "/images/terramies/favion_terramies.png",
    "metaImg" : "/images/terramies/banner.png",
    "js" : {
        "urls" : [ 
            "terramies_index.js"
        ]
    },

    "typeObj" : {
        "organizations" : {
            "color" : "purple",
            "add" : true,            
            "dynFormCostum" : {
                "beforeBuild":{
                    "properties":{
                        "category" : {
                            "placeholder" : "Identifiez-vous à une catégorie d'acteur",
                            "inputType" : "select",
                            "label" : "Catégorie d'acteur*",
                            "order" : 5,
                            "labelInformation": "test",
                            "options" : {
                                "entreprise" : "Entreprise",
                                "loisir" : "Sport et loisir",
                                "annuaireMedical" : "Santé"
                            }
                        }
                        
                    }
                },
                           
                "onload" : {
                    "actions" : {
                        "setTitle" : "Ajouter une structure",
                        "html" : {
                            "typeselect>label": "<i class='fa fa-chevron-down'></i> Type d'organisation (si pas de statut, précisez 'Groupe')"
                        }
                        
                        
                        
                    }
                    
                }
            }       
        },
        "ressources" : {
            "add" : "onlyAdmin",
            "name" : "Mission bénévole",
            "color" : "azure",
            "dynFormCostum" : {
                "beforeBuild" : {
                    "properties" : {
                        "name" : {
                            "label" : "Nom de la mission",
                            "placeholder" : "Nom de la mission",
                            "order" : 1
                        },
                        "parent" : {
                            "label" : "Emetteur de la mission",
                            "initMe":false,
                            "initType": ["organizations"],
                            "initContext": false,
                            "rules" : {
                                "required" : true
                            }
                        },
                        "description" : {
                            "inputType" : "textarea",
                            "markdown" : true,
                            "label" : "Description de la mission"
                        }
                    }
                },
                "onload" : {
                    "actions" : {
                        "setTitle" : "Créer un mission de bénévolat",
                        "html" : {
                            "infocustom" : "<br/>Publier une mission de bénévolat"
                        },
                        "presetValue" : {
                            "section" : "need",
                            "category" : "competence",
                            "subCategory" : "laws"
                        },
                        "hide" : {
                            "locationlocation" : 1,
                            "breadcrumbcustom" : 1,
                            "urlsarray" : 1
                        }
                    }
                }
            }
        },
        "citoyens" : {
            "add" : false
        },

        "poi" : {
            "add" : false,
            "name" : "Ressources Professionnelles"
        },

        "mesure" : {
            "color" : "red",
            "name" : "Ressources juridiques",
            "sameAs" : "poi",
            "formType" : "mesure",
            "add" : true,
            "formParent" : "poi",
            "createLabel" : "Créer une mesure",
            "icon" : "gavel",
            "dynFormCostum" : {
                "beforeBuild" : {
                    "properties" : {
                        "name" : {
                            "label" : "Enoncé de la mesure",
                            "placeholder" : "Nom de la mesure"
                        },
                        "parent" : {
                            "label" : "Qui porte la mesure"
                        },
                        "shortDescription" : {
                            "inputType" : "textarea",
                            "label" : "En-tete de la mesure",
                            "order" : 5,
                            "rules" : {
                                "maxlength" : 400
                            }
                        },
                        "documentation" : {
                            "inputType" : "uploader",
                            "label" : "Ajouter un document téléchargeable",
                            "showUploadBtn" : false,
                            "docType" : "file",
                            "itemLimit" : 1,
                            "contentKey" : "file",
                            "order" : 8,
                            "domElement" : "documentationFile",
                            "placeholder" : "Le pdf de la mesure",
                            "afterUploadComplete" : null,
                            "template" : "qq-template-manual-trigger",
                            "filetypes" : [ 
                                "pdf"
                            ]
                        },
                        "description" : {
                            "inputType" : "textarea",
                            "markdown" : true,
                            "label" : "Description de la mesure"
                        }
                    }
                },
                "onload" : {
                    "actions" : {
                        "setTitle" : "Créer une mesure",
                        "html" : {
                            "infocustom" : "<br/>Remplir les mesures de soutien aux démarches des mineurs non accompagnés"
                        },
                        "presetValue" : {
                            "type" :"mesure"    
                        },
                        "hide" : {
                            "locationlocation" : 1,
                            "breadcrumbcustom" : 1,
                            "urlsarray" : 1
                        }
                    }
                }
            }
        },
        "procedure" : {
            "color" : "black",
            "icon" : "cog",
            "name" : "Protocoles et procédures",
            "sameAs" : "poi",
            "formType" : "procedure",
            "formParent" : "poi",
            "add" : true,
            "createLabel" : "Ajouter une procédure",
            "dynFormCostum" : {
                "beforeBuild" : {
                    "properties" : {
                        "name" : {
                            "label" : "Enoncé de la procédure",
                            "placeholder" : "Nom de la procédure"
                        },
                        "parent" : {
                            "label" : "Qui rapporte la procédure"
                        },
                        "shortDescription" : {
                            "inputType" : "textarea",
                            "label" : "En-tete de la procédure",
                            "order" : 5,
                            "rules" : {
                                "maxlength" : 400
                            }
                        },
                        "documentation" : {
                            "inputType" : "uploader",
                            "label" : "Ajouter un document téléchargeable",
                            "showUploadBtn" : false,
                            "docType" : "file",
                            "itemLimit" : 1,
                            "contentKey" : "file",
                            "order" : 8,
                            "domElement" : "documentationFile",
                            "placeholder" : "Le pdf de la procédure",
                            "afterUploadComplete" : null,
                            "template" : "qq-template-manual-trigger",
                            "filetypes" : [ 
                                "pdf"
                            ]
                        },
                        "description" : {
                            "inputType" : "textarea",
                            "markdown" : true,
                            "label" : "Description de la procédure"
                        }
                    }
                },
                "onload" : {
                    "actions" : {
                        "setTitle" : "Créer une procédure",
                        "html" : {
                            "infocustom" : "<br/>Remplir les procédures d'accompagnement et protocoles"
                        },
                        "presetValue" : {
                            "type" : "procedure"
                        },
                        "hide" : {
                            "locationlocation" : 1,
                            "breadcrumbcustom" : 1,
                            "urlsarray" : 1
                        }
                    }
                }
            }    
        },
        "recherche" : {
            "color" : "green",
            "icon" : "book",
            "name" : "Etudes et recherches",
            "sameAs" : "poi",
            "formType" : "recherche",
            "formParent" : "poi",
            "add" : true,
            "createLabel" : "Ajouter une recherche",
            "dynFormCostum" : {
                "beforeBuild" : {
                    "properties" : {
                        "name" : {
                            "label" : "Enoncé de la recherche",
                            "placeholder" : "Nom de la recherche"
                        },
                        "parent" : {
                            "label" : "Qui rapporte la recherche"
                        },
                        "shortDescription" : {
                            "inputType" : "textarea",
                            "label" : "En-tete de la recherche",
                            "order" : 5,
                            "rules" : {
                                "maxlength" : 400
                            }
                        },
                        "documentation" : {
                            "inputType" : "uploader",
                            "label" : "Ajouter un document téléchargeable",
                            "showUploadBtn" : false,
                            "docType" : "file",
                            "itemLimit" : 1,
                            "contentKey" : "file",
                            "order" : 8,
                            "domElement" : "documentationFile",
                            "placeholder" : "Le pdf de la recherche",
                            "afterUploadComplete" : null,
                            "template" : "qq-template-manual-trigger",
                            "filetypes" : [ 
                                "pdf"
                            ]
                        },
                        "description" : {
                            "inputType" : "textarea",
                            "markdown" : true,
                            "label" : "Description de la recherche"
                        }
                    }
                },
                "onload" : {
                    "actions" : {
                        "setTitle" : "Créer une recherche",
                        "html" : {
                            "infocustom" : "<br/>Partager les études et les recherches"
                        },
                        "presetValue" : {
                            "type" : "recherche"
                        },
                        "hide" : {
                            "locationlocation" : 1,
                            "breadcrumbcustom" : 1,
                            "urlsarray" : 1
                        }
                    }
                }
            }    
        },
        "atelier" : {
            "color" : "yellow",
            "icon" : "comment",
            "name" : "Ateliers Terramies",
            "sameAs" : "poi",
            "formType" : "atelier",
            "formParent" : "poi",
            "add" : true,
            "createLabel" : "Ajouter un atelier",
            "dynFormCostum" : {
                "beforeBuild" : {
                    "properties" : {
                        "name" : {
                            "label" : "Enoncé de l'atelier'",
                            "placeholder" : "Nom de l'atelier"
                        },
                        "parent" : {
                            "label" : "Qui rapporte l'atelier"
                        },
                        "shortDescription" : {
                            "inputType" : "textarea",
                            "label" : "En-tete de l'atelier",
                            "order" : 5,
                            "rules" : {
                                "maxlength" : 400
                            }
                        },
                        "documentation" : {
                            "inputType" : "uploader",
                            "label" : "Ajouter un document téléchargeable",
                            "showUploadBtn" : false,
                            "docType" : "file",
                            "itemLimit" : 1,
                            "contentKey" : "file",
                            "order" : 8,
                            "domElement" : "documentationFile",
                            "placeholder" : "Le pdf de l'atelier",
                            "afterUploadComplete" : null,
                            "template" : "qq-template-manual-trigger",
                            "filetypes" : [ 
                                "pdf"
                            ]
                        },
                        "description" : {
                            "inputType" : "textarea",
                            "markdown" : true,
                            "label" : "Description de l'atelier"
                        }
                    }
                },
                "onload" : {
                    "actions" : {
                        "setTitle" : "Créer un atelier",
                        "html" : {
                            "infocustom" : "<br/>Partager le format, animation et contenu des ateliers Terramies"
                        },
                        "presetValue" : {
                            "type" : "atelier"
                        },
                        "hide" : {
                            "locationlocation" : 1,
                            "breadcrumbcustom" : 1,
                            "urlsarray" : 1
                        }
                    }
                }
            }    
        },
        "event" : {
            "add" : true,
            "dynFormCostum" : {
                
                "onload" : {
                    "actions" : {
                          "hide" : {
                            "publiccheckboxSimple" : 1
                        }
                    }
                }
            }
        }
    },
    
    "htmlConstruct" : {
        "appRendering" : "horizontal",
        "redirect" : {
            "logged" : "welcome",
            "unlogged" : "welcome"
        },
        "adminPanel" : {
            "add" : true,
            "menu":{
                "statistic" : true,
                "directory" : true,
                "community": {
                    "show":true
                },
                "reference" : {
                    "show":true,
                    "initType" : [ 
                        "organizations"
                    ]
                }
            }
        },
        "directoryViewMode" : "block",
        "directory" : {
            "header" : {
                "map" : true,
                "viewMode" : false,
                "add" : {
                    "projects" : true,
                    "needs" : true
                }
            },
            "footer" : {
                "add" : true
            }
        },
        "footer" : {
            "url" : "costum.views.custom.terramies.footer"
        },
        "preview": {
            "poi" : "costum.views.custom.terramies.preview",
            "classifieds" : "costum.views.custom.terramies.previewBenevolat"
        },
        "header" : {
            "menuTop" : {
                "left" : {
                    "buttonList" : {
                        "xsMenu":{
                            "addClass" : "padding-left-10",
                            "buttonList":{
                                "app":{
                                    "label":true,
                                    "spanTooltip":false,
                                    "buttonList":{
                                        "#search": true,
                                        "#agenda" : true,
                                        "#ressourcesPro": true,
                                        "#live":true,
                                        "#annonces":true
                                    }
                                },
                                "add":true
                            }
                        },
                        "logo" : {
                            "height" : 40
                        }
                    }                  
                },
                "center" : {
                    "class":"padding-top-10 text-right col-sm-7 col-lg-7 hidden-xs",
                    "menu":true,
                    "buttonList":{
                        "app" : {
                            "img" : true,
                            "label" : true,
                            "class": "hidden-xs padding-right-20",
                            "buttonList" : {
                                "#search": true,
                                "#agenda" : true,
                                "#ressourcesPro": true,
                                "#live":true,
                                "#annonces":true
                            }
                        } 
                    }
                },
                "right" : {
                    "buttonList":{ 
                        "networkFloop" : true,
                        "userProfil" : {
                            "img" : true,
                            "name" : true
                        },
                        "dropdown" : {
                            "connected":true,
                            "buttonList":{
                                "admin" : true,
                                "logout" : true,
                                "settings" : true
                            }
                        },                    
                        "login" : true
                    }
                }
            }
        },
        
        "element" : {
            "initView" : "detail",
            "menuLeft" : {
                "buttonList":{
                    "answerInvitation":true,
                    "linksBtn":true,
                    "invite":true,
                    "detail" : true
                }    
            },
            "menuTop" : {
                "left":{
                    "buttonList":{
                        "imgUploader":true
                    }
                },
                "right":{
                    "buttonList" : {
                        "imgProfil":true,
                        "nameProfil":true,
                        "newspaper" : true,
                        "cospace":false,
                        "chat":false,
                        "create":true,
                        "dropdown":{
                            "buttonList":{
                                "history" : false,
                                "settings" : true,
                                "settingsCommunity" : true,
                                "mindmap" : false,
                                "editSlug" : false,
                                "delete" : true
                            }
                        }
                    }
                }
            }
        },
        "menuBottom" : {
            "buttonList" : {
                "add" : {
                    "class" : "show-bottom-add pull-right padding-10"
                }
            }    
        }
    },
    "css" : {
        "urls" : [ 
            "terramies_index.css",
            "terramies_filters.css"
        ],
        "loader" : {
            "background" : "white",
            "ring1" : {
                "color" : "#dd328d",
                "height" : 600,
                "width" : 600,
                "left" : -15,
                "borderWidth" : 4,
                "top" : -35
            },
            "ring2" : {
                "color" : "#f3d21a",
                "height" : 550,
                "width" : 550,
                "left" : -10,
                "borderWidth" : 5,
                "top" : -30
            }
        },
        "progress" : {
            "value" : {
                "background" : "#f3d21a"
            },
            "bar" : {
                "background" : "#fff"
            }
        },
        "menuTop" : {
            "app" : {
                "paddingLeft" : "30px",
                "button" : {
                    "fontSize" : 16,
                    "fontWeight" : 700,
                    "color" : "#144894"
                }
            },
            "boxShadow" : "none",
            "button" : {
                "paddingTop" : 0,
                "fontSize" : 20,
                "lineHeight" : 40
            },
            "badge" : {
                "background" : "#337ab7",
                "border" : "1px solid white"
            },
            "scopeBtn" : {
                "display" : "none"
            },
            
            "connectBtn" : {
                "background" : "#144894",
                "color" : "white",
                "fontSize" : 18,
                "borderRadius" : 10,
                "padding" : "8px 15px"
            }
        },
        "menuApp" : {
            "button" : {
                "fontSize" : "14",
               
                "hover" : {
                    "borderBottom" : "4px solid #f3d21a"
                    
                }
            }
        },
        "button" : {
            "footer" : {
                "add" : {
                    "fontSize" : 35,
                    "background" : "transparent",
                    "color" : "#144894"
                },
                "toolbarAdds" : {
                    "bottom" : 30,
                    "right" : 55

                }

            }
        },
        "color" : {
            "purple" : "#144984",
            "blue" : "#F3D21A",
            "red" : "#DD328D",
            "black" : "#41D4C3",
            "green" : "#3C3C3C",
            "brown" : "#FF5673"
        }
    },
    "app" : {
        "#welcome" : {
            "subdomainName" : "Accueil",
            "icon" : "home"
        }, 
        "#search" : {
            "icon" : "search",
            "subdomainName" : "Annuaire",
            "filterObj": "costum.views.custom.terramies.filterSearch",
            "placeholderMainSearch" : "what are you looking for ?",
            "useFilter" : true,
            "useFooter" : true,
            "filters" : {
                "types" : [ 
                    "organizations"
                ]
            },
            "searchObject" : {
                "indexStep" : "0"
            }
        },
        "#entreprise" : {
            "hash" : "#app.search",
            "icon" : "search",
            "filterObj": "costum.views.custom.terramies.filters",
            "urlExtra" : "/page/entreprise",
            "subdomainName" : "Toutes les entreprises",
            "placeholderMainSearch" : "what are you looking for ?",
            "useHeader" : false,
            "useFilter" : false,
            "useFooter" : true,
            "filters" : {
                "types" : [ 
                    "organizations"
                ]
            },
            "searchObject" : {
                "indexStep" : "0"
            }
        },
        "#loisir" : {
            "hash" : "#app.search",
            "icon" : "search",
            "filterObj": "costum.views.custom.terramies.filters",
            "urlExtra" : "/page/loisir",
            "subdomainName" : "Toutes les structures de loisir",
            "placeholderMainSearch" : "what are you looking for ?",
            "useHeader" : false,
            "useFilter" : false,
            "useFooter" : true,
            "filters" : {
                "types" : [ 
                    "organizations"
                ]
            },
            "searchObject" : {
                "indexStep" : "0"
            }
        },
        "#annuaireMedical" : {
            "hash" : "#app.search",
            "icon" : "search",
            "filterObj": "costum.views.custom.terramies.filters",
            "urlExtra" : "/page/annuaireMedical",
            "subdomainName" : "Tous les établissements médicaux",
            "placeholderMainSearch" : "what are you looking for ?",
            "useHeader" : false,
            "useFilter" : false,
            "useFooter" : true,
            "filters" : {
                "types" : [ 
                    "organizations"
                ]
            },
            "searchObject" : {
                "indexStep" : "0"
            }
        },
            
        "#agenda" : {
            "subdomainName" : "Événements",
            "placeholderMainSearch" : "what are you looking for ?",
            "useFilter" : false
        },
        "#ressourcesPro" : {
            "hash" : "#app.search",
            "icon" : "folder-open",
            "urlExtra" : "/page/ressourcesPro",
            "filterObj": "costum.views.custom.terramies.filterRessource",
            "useFilter" : true,
            "useFooter" : true,
            "useMapBtn" : false,
            "subdomainName" : "Ressources Pro",
            "filters" : {
                "types" : [ 
                    "poi"
                ]
            },
            "searchObject" : {
                "indexStep" : "9",
                "sortBy" : [ 
                    "name"
                ]
            },
            "placeholderMainSearch" : "what are you looking for ?"
        },
        "#live" : {
            "subdomainName" : "Activité du réseau",
            "icon" : "rss",
            "slug" : "costum.contextSlug",
            "useFilter":false
        },
        "#annonces" : {
            "subdomainName" : "Missions bénévoles",
            "urlExtra" : "/page/benevolat",
            "icon" : "heart",
            "useFilter" : true,
            "hash":"#default.index.goToSearch.true",
            "filters" : {
                "type" : [
                    "ressources"
                ],
                "section" : "offer"
            },    
            "searchObject" : {
                "indexStep" : "9"
            }
        }, 
        "#don" : {
            "hash" : "#app.view",
            "icon" : "folder-open",
            "urlExtra" : "/page/don/url/costum.views.custom.terramies.don",
            "useFooter" : true,           
            "useHeader" : true,
            "useFilter" : false,
            "open" : true,
            "subdomainName" : "Don"
        },
        "#mentions" : {
            "hash" : "#app.view",
            "icon" : "",
            "urlExtra" : "/page/mentions/url/costum.views.custom.terramies.mentions",
            "useHeader" : true,
            "useFooter" : true,
            "useFilter" : false,
            "subdomainName" : "Mentions légales"
        },
        "#cgu" : {
            "hash" : "#app.view",
            "urlExtra" : "/page/cgu/url/costum.views.custom.terramies.cgu",
            "useHeader" : true,
            "useFooter" : true,
            "useFilter" : false,
            "subdomainName" : "cgu"
        },
        "#confidentialite" : {
            "hash" : "#app.view",
            "urlExtra" : "/page/confidentialite/url/costum.views.custom.terramies.confidentialite",
            "useHeader" : true,
            "useFooter" : true,
            "useFilter" : false,
            "subdomainName" : "confidentialite"
        },
        "#apropos" : {
            "hash" : "#app.view",
            "urlExtra" : "/page/apropos/url/costum.views.custom.terramies.apropos",
            "useHeader" : true,
            "useFooter" : true,
            "useFilter" : false,
            "subdomainName" : "A propos"
        }

    },
    "filters" : {
        "sourceKey" : true
    }    
}
