{
    "slug" : "tiersLieuxGenerique",
    "welcomeTpl" : "costum.views.custom.costumize.home",
    "js" : {
        "urls" : [ 
            "tiersLieuxGenerique_index.js"
        ]
    },
    "css" : {
        "urls" : [ 
            "tiersLieuxGenerique_index.css"
        ],
        "menuTop" : {
            "background" : "white",
            "boxShadow" : "",
            "app" : {
                "button" : {
                    "fontSize" : "18",
                    "fontWeight" : "bold",
                    "textTransform" : "uppercase",
                    "color" : "black",
                    "design" : {
                        "clipPath" : "",
                        "background" : "",
                        "width" : "auto",
                        "height" : "auto",
                        "paddingLeft" : "10",
                        "paddingRight" : "10",
                        "paddingTop" : "10",
                        "paddingBottom" : "10",
                        "display" : "inline-block",
                        "hover" : {
                            "background" : "transparent",
                            "color" : "#f1c232",
                            "textDecoration" : "none"
                        },
                        "marginTop" : "5",
                        "textAlign" : "center"
                    }
                }
            },
            "xsMenu" : {
                "background" : "black",
                "button" : {
                    "fontSize" : "24",
                    "fontWeight" : "normal",
                    "textTransform" : "capitalize",
                    "color" : "black",
                    "design" : {
                        "clipPath" : "",
                        "background" : "",
                        "height" : "auto",
                        "paddingLeft" : "10",
                        "paddingRight" : "10",
                        "paddingTop" : "10",
                        "paddingBottom" : "10",
                        "display" : "inline-block",
                        "hover" : {
                            "background" : "transparent",
                            "color" : "#f1c232",
                            "textDecoration" : "none"
                        },
                        "marginTop" : "5",
                        "textAlign" : "center"
                    }
                }
            },
            "button" : {
                "paddingTop" : "0",
                "fontSize" : "30",
                "color" : "black"
            },
            "scopeBtn" : {
                "color" : "black"
            },
            "filterBtn" : {
                "color" : "black"
            },
            "badge" : {
                "background" : "white",
                "border" : ""
            },
            "connectBtn" : {
                "background" : "",
                "color" : "",
                "fontSize" : "18",
                "borderRadius" : "0",
                "padding" : ""
            },
            "userProfil" : {
                "background" : "grey",
                "color" : "white",
                "borderRadius" : "50px",
                "display" : "block",
                "textAlign" : "",
                "marginLeft" : "10",
                "width" : ""
            }
        }
    },
    "htmlConstruct" : {
        "appRendering" : "horizontal",
        "subMenu" : false,
        "header" : {
            "menuTop" : {
                "left" : {
                    "buttonList" : {
                        "logo" : {
                            "width" : "100",
                            "height" : "50"
                        },
                        "xsMenu" : {
                            "buttonList" : {
                                "app" : {
                                    "label" : true,
                                    "icon" : false,
                                    "spanTooltip" : false,
                                    "labelClass" : "padding-left-10"
                                }
                            }
                        },
                        "app" : {
                            "label" : true,
                            "icon" : false,
                            "spanTooltip" : false,
                            "class" : "hidden-xs line-height-3 padding-left-10",
                            "labelClass" : "padding-left-5",
                            "buttonList" : {
                                "#welcome" : true,
                                "#live" : true,
                                "#agenda" : true,
                                "#voisins" : true,
                                "#badges" : true,
                                "#projects" : true,
                                "#news-builder" : true
                            }
                        }
                    }
                },
                "right" : {
                    "buttonList" : {
                        "userProfil" : {
                            "name" : true,
                            "img" : true
                        },
                        "dropdown" : {
                            "buttonList" : {
                                "admin" : true,
                                "editcms" : true,
                                "login" : true,
                                "logout" : true
                            }
                        }
                    }
                }
            }
        },
        "element" : {
            "tplCss" : [ 
                "v1.0_pageProfil.css"
            ],
            "banner" : "co2.views.element.bannerHorizontal",
            "containerClass" : {
                "centralSection" : "col-xs-12 col-lg-10 col-lg-offset-1"
            },
            "menuTop" : {
                "class" : "col-xs-12",
                "left" : {
                    "class" : "col-lg-3 col-md-3 col-sm-4 hidden-xs no-padding",
                    "buttonList" : {
                        "imgUploader" : true
                    }
                },
                "right" : {
                    "class" : "col-md-12 col-sm-12 col-lg-12 col-xs-12 text-center",
                    "buttonList" : {
                        "xsMenu" : {
                            "class" : "visible-xs",
                            "buttonList" : {
                                "detail" : true,
                                "community" : true,
                                "gallery" : true,
                                "events" : true,
                                "classifieds" : true,
                                "newspaper" : true
                            }
                        },
                        "detail" : true,
                        "community" : true,
                        "gallery" : true,
                        "events" : true,
                        "classifieds" : true,
                        "newspaper" : true,
                        "form" : true
                    }
                }
            }
        },
        "menuBottom" : {
            "add" : false,
            "donate" : false
        },
        "adminPanel" : {
            "js" : true,
            "add" : true,
            "menu" : {
                "statistic" : true,
                "directory" : true,
                "converter" : true,
                "import" : true,
                "community" : {
                    "show" : true,
                    "mailing" : true
                },
                "reference" : {
                    "show" : true,
                    "initType" : [ 
                        "organizations"
                    ]
                }
            }
        },
        "directoryViewMode" : "block",
        "directory" : {
            "header" : {
                "map" : false,
                "viewMode" : false,
                "add" : {
                    "proposals" : true
                }
            },
            "footer" : {
                "add" : {
                    "proposals" : true
                }
            }
        },
        "footer" : {
            "url" : "costum.views.custom.tiersLieuxGenerique.footer"
        },
        "redirect" : {
            "logged" : "welcome",
            "unlogged" : "welcome"
        }
    },
    "filters" : {
        "sourceKey" : true
    },
    "typeObj" : {
        "organizations" : {
            "add" : true,
            "name" : "Organisation",
            "dynFormCostum" : {
                "beforeBuild" : {
                    "properties" : {
                        "thematic" : {
                            "order" : 2,
                            "inputType" : "select",
                            "label" : "Thématique : ",
                            "list" : "thematic",
                            "select2" : {
                                "multiple" : true
                            },
                            "rules" : {
                                "required" : true
                            },
                            "placeholder" : "Choisir"
                        }
                    }
                },
                "formData" : "costum[costum.slug].organizations.formData"
            }
        },
        "event" : {
            "add" : true,
            "canAdd" : "members",
            "dynFormCostum" : {
                "beforeBuild" : {
                    "properties" : {
                        "thematic" : {
                            "order" : 2,
                            "inputType" : "select",
                            "label" : "Thématique : ",
                            "list" : "thematic",
                            "select2" : {
                                "multiple" : true
                            },
                            "rules" : {
                                "required" : true
                            },
                            "placeholder" : "Choisir"
                        }
                    }
                },
                "formData" : "costum[costum.slug].events.formData",
                "afterSave" : "costum[costum.slug].events.afterSave"
            }
        },
        "projects" : {
            "add" : true,
            "canAdd" : "members",
            "dynFormCostum" : {
                "beforeBuild" : {
                    "properties" : {
                        "thematic" : {
                            "order" : 2,
                            "inputType" : "select",
                            "label" : "Thématique : ",
                            "list" : "thematic",
                            "select2" : {
                                "multiple" : true
                            },
                            "rules" : {
                                "required" : true
                            },
                            "placeholder" : "Choisir"
                        }
                    }
                },
                "formData" : "costum[costum.slug].projects.formData",
                "afterSave" : "costum[costum.slug].projects.afterSave"
            }
        },
        "poi" : {
            "add" : true
        },
        "badges" : {
            "add" : true,
            "name" : "Badge",
            "dynFormCostum" : {
                "beforeBuild" : {
                    "properties" : {
                        "thematic" : {
                            "order" : 1,
                            "inputType" : "select",
                            "label" : "Thématique : ",
                            "list" : "thematic",
                            "select2" : {
                                "multiple" : true
                            },
                            "rules" : {
                                "required" : true
                            },
                            "placeholder" : "Choisir"
                        }
                    }
                },
                "formData" : "costum[costum.slug].badges.formData"
            }
        }
    },
    "app" : {
        "#welcome" : {
            "subdomainName" : "Accueil",
            "hash" : "#app.view",
            "urlExtra" : "/page/welcome"
        },
        "#news-builder" : {
            "subdomainName" : "News Letter"
        },
        "#newsletter" : {
            "isTemplate" : true,
            "staticPage" : true,
            "hash" : "#app.view",
            "urlExtra" : "/page/newsletter",
            "subdomainName" : "News Letter"
        },
        "#agenda" : {
            "isTemplate" : true,
            "staticPage" : true,
            "useFilter" : true,
            "hash" : "#app.agenda",
            "urlExtra" : "/page/agenda",
            "subdomainName" : "agenda"
        },
        "#voisins" : {
            "useFilter" : true,
            "showMap" : true,
            "subdomainName" : "Voisins",
            "filterObj" : "costum.views.custom.tiersLieuxGenerique.filters",
            "hash" : "#app.search",
            "urlExtra" : "/page/voisins",
            "results" : {
                "renderView" : "directory.elementPanelHtml"
            },
            "filters" : {
                "types" : [ 
                    "organizations"
                ]
            },
            "searchObject" : {
                "indexStep" : "30",
                "sortBy" : ""
            }
        },
        "#live" : {
            "subdomainName" : "Actualité"
        },
        "#projects" : {
            "useFilter" : true,
            "hash" : "#app.search",
            "urlExtra" : "/page/projects",
            "subdomainName" : "projects",
            "results" : {
                "renderView" : "directory.elementPanelHtml"
            },
            "searchObject" : {
                "indexStep" : "20",
                "sortBy" : ""
            },
            "filters" : {
                "types" : [ 
                    "projects"
                ]
            }
        },
        "#badges" : {
            "subdomainName" : "Compétences des membres",
            "filterObj" : "costum.views.custom.tiersLieuxGenerique.badge-finder",
            "isTemplate" : true,
            "staticPage" : true,
            "hash" : "#app.view",
            "urlExtra" : "/page/badges"
        },
        "#badge" : {
            "subdomainName" : "Badge"
        }
    },
    "lists" : {
        "typologyOfActors" : {
            "Associations de quartier" : "Associations de quartier",
            "Éducation" : "Éducation",
            "Insertion" : "Insertion",
            "Sport" : "Sport",
            "Culture" : "Culture",
            "Loisir" : "Loisir",
            "Patrimoine" : "Patrimoine",
            "Structure Vacances" : "Structure Vacances",
            "Garderie" : "Garderie",
            "École" : "École",
            "Conseil Citoyen" : "Conseil Citoyen",
            "Collectivité Territoriale" : "Collectivité Territoriale",
            "Média" : "Média",
            "Lieu de rassemblement de quartier" : "Lieu de rassemblement de quartier",
            "Terrain de sport" : "Terrain de sport"
        },
        "category" : {
            "food" : {
                "agriculture" : "agriculture",
                "food" : "food",
                "nutrition" : "nutrition",
                "AMAP" : "AMAP"
            },
            "health" : {
                "health" : "health"
            },
            "waste" : {
                "waste" : "waste"
            },
            "transport" : {
                "urbanism" : "urbanism",
                "transport" : "transport",
                "construction" : "construction",
                "development" : "development"
            },
            "education" : {
                "education" : "education",
                "childhood" : "childhood"
            },
            "citizen" : {
                "society" : "society",
                "citizen" : "citizen",
                "citizenship" : "citizenship"
            },
            "economy" : {
                "ess" : "ess",
                "social solidarity economy" : "social solidarity economy"
            },
            "energy" : {
                "energy" : "energy",
                "climat" : "climat"
            },
            "culture" : {
                "culture" : "culture",
                "animation" : "animation"
            },
            "environnement" : {
                "environment" : "environment",
                "biodiversity" : "biodiversity",
                "ecology" : "ecology"
            },
            "numeric" : {
                "numeric" : "numeric",
                "itc" : "itc",
                "internet" : "internet"
            },
            "sport" : {
                "sport" : "sport"
            }
        },
        "typePlace" : [ 
            "Coworking", 
            "Ateliers artisanaux partagés", 
            "Fablab / Atelier de Fabrication Numérique", 
            "Tiers-lieu culturel", 
            "Tiers-lieu agricole", 
            "Cuisine partagée / Foodlab", 
            "LivingLab / Laboratoire d'innovation sociale"
        ],
        "services" : [ 
            "Accompagnement des publics", 
            "Action sociale", 
            "Aiguillage / Orientation", 
            "Bar / café", 
            "Boutique / Épicerie", 
            "Coopérative d'Activités et d'Emploi / Groupement d'employeur", 
            "Cantine / restaurant", 
            "Centre de ressources", 
            "Chantier participatif", 
            "Complexe évènementiel", 
            "Conciergerie ", 
            "Domiciliation", 
            "Espace de stockage", 
            "Espace détente", 
            "Espace enfants", 
            "Formation / Transfert de savoir-faire / Éducation", 
            "Habitat", 
            "Incubateur", 
            "Lieu d'éducation populaire et nouvelles formes d'apprentissage", 
            "Maison de services au public", 
            "Marché", 
            "Média et son", 
            "MediaLab", 
            "Médiation numérique", 
            "Offre artistique ou culturelle", 
            "Pépinière d'entreprises", 
            "Point d'appui à la vie associative", 
            "Point Information Jeunesse", 
            "Point d'information touristique", 
            "Pratiques de soin (art thérapie, massage, médecine douce, méditation...)", 
            "Résidences d'artistes", 
            "Ressourcerie / recyclerie", 
            "Service enfance-jeunesse", 
            "Services liés à la mobilité"
        ],
        "thematic" : {}
    },
    "paramsData" : {
        "poles" : {
            "Jardin" : {
                "color" : "#7aba59"
            },
            "Culture" : {
                "color" : "#61c5de"
            },
            "Sport" : {
                "color" : "#a182ae"
            },
            "Micro-Recyclerie" : {
                "color" : "#f9d10d"
            },
            "Alimentation" : {
                "color" : "#D18345"
            },
            "La Coopérative" : {
                "color" : "#e36b73"
            },
            "Les communs" : {
                "isAdmin" : true,
                "color" : "#deae66"
            },
            "CA" : {
                "isAdmin" : true,
                "color" : "#fb4141"
            }
        }
    }
}