<?xml version="1.0" encoding="utf-8"?>
<!-- Generator: Adobe Illustrator 23.0.4, SVG Export Plug-In . SVG Version: 6.00 Build 0)  -->
<svg version="1.1" id="Calque_1" xmlns="http://www.w3.org/2000/svg" xmlns:xlink="http://www.w3.org/1999/xlink" x="0px" y="0px"
	 viewBox="0 320 595.28 200.89" style="enable-background:new 0 0 595.28 841.89;" xml:space="preserve">
<style type="text/css">
	.st0{fill:#FFFFFF;}
	.st1{font-family:'SharpSansMedium';}
	.st2{font-size:43.3313px;}
	.st3{font-family:'SharpSansBold';}
	.st4{fill:#36B4A0;}
	.st5{font-family:'SharpSansMedium';}
	.st6{font-size:26.4145px;}
	.st7{fill:#6BBFA3;}
	.st8{fill:#AFCA0B;}
	.st9{fill:#00ACA9;}
	.st10{fill:#95C11F;}
</style>
<g>
	<g>
		<g>
			<text transform="matrix(1 0 0 1 271.2626 403.6614)"><tspan x="0" y="0" class="st0 st1 st2">LA</tspan><tspan x="0" y="44.99" class="st0 st3 st2">RÉUNION</tspan></text>
			<g>
				<text transform="matrix(1 0 0 1 391.9706 480.1658)" class="st4 st5 st6">100% numérique</text>
			</g>
		</g>
	</g>
	<g>
		<g>
			<polygon class="st7" points="52.11,420.94 104.81,512.22 210.21,512.22 137.1,420.94 			"/>
			<polygon class="st8" points="210.21,329.67 210.21,512.22 262.91,420.94 			"/>
			<polygon class="st9" points="210.21,329.67 104.81,329.67 52.11,420.94 140.14,420.94 			"/>
			<polygon class="st10" points="137.1,420.94 210.21,512.22 210.21,329.67 			"/>
		</g>
		<g>
			<path id="share_1_" class="st0" d="M195.31,406.78c-4.78,0-8.99-2.28-11.74-5.77c-9.83,4.92-19.68,9.83-29.52,14.76
				c0.34,1.24,0.57,2.52,0.57,3.86c0,1.35-0.23,2.63-0.57,3.87c9.83,4.92,19.67,9.83,29.51,14.75c2.75-3.48,6.96-5.76,11.74-5.76
				c8.28,0,14.99,6.71,14.99,14.98c0,8.28-6.71,15-14.99,15c-8.27,0-14.98-6.72-14.98-15c0-1.34,0.23-2.62,0.57-3.86
				c-9.83-4.93-19.67-9.83-29.52-14.76c-2.75,3.49-6.96,5.78-11.74,5.78c-8.27,0-14.99-6.7-14.99-14.99
				c0-8.27,6.72-14.98,14.99-14.98c4.78,0,8.99,2.28,11.74,5.77c9.83-4.91,19.67-9.83,29.52-14.74c-0.34-1.25-0.57-2.53-0.57-3.88
				c0-8.27,6.71-14.99,14.98-14.99c8.28,0,14.99,6.72,14.99,14.99C210.3,400.06,203.59,406.78,195.31,406.78z"/>
			<path id="share_3_" class="st0" d="M128.53,459.39c1.74-2.95,4.69-4.71,7.85-5.13c0.55-7.86,1.12-15.72,1.68-23.59
				c-0.89-0.24-1.77-0.57-2.59-1.06c-0.84-0.49-1.54-1.1-2.18-1.76c-6.62,4.27-13.25,8.54-19.87,12.81c1.15,2.97,1.01,6.4-0.73,9.34
				c-3.02,5.11-9.61,6.79-14.71,3.78c-5.11-3.02-6.8-9.62-3.78-14.72c3.02-5.1,9.61-6.78,14.72-3.76c0.83,0.49,1.53,1.1,2.17,1.76
				c6.63-4.27,13.25-8.54,19.88-12.81c-1.15-2.97-1.02-6.4,0.72-9.35c3.02-5.1,9.61-6.8,14.72-3.77c5.1,3.02,6.79,9.61,3.77,14.72
				c-1.75,2.95-4.69,4.71-7.84,5.13c-0.56,7.86-1.12,15.72-1.69,23.59c0.89,0.25,1.77,0.57,2.6,1.07c5.1,3.02,6.8,9.61,3.78,14.71
				c-3.02,5.11-9.62,6.79-14.72,3.77C127.2,471.09,125.51,464.5,128.53,459.39z"/>
			<path id="share_2_" class="st0" d="M117.72,396.82c1.29,2.5,1.22,5.33,0.13,7.71c5.23,3.83,10.45,7.67,15.69,11.5
				c0.56-0.51,1.17-0.98,1.87-1.34c0.71-0.36,1.44-0.59,2.18-0.75c-0.07-6.48-0.14-12.96-0.21-19.44c-2.57-0.5-4.9-2.1-6.18-4.6
				c-2.23-4.34-0.52-9.67,3.82-11.89c4.34-2.23,9.67-0.52,11.9,3.82c2.23,4.34,0.51,9.66-3.83,11.89c-0.7,0.36-1.44,0.59-2.18,0.74
				c0.07,6.48,0.14,12.96,0.21,19.45c2.57,0.5,4.9,2.09,6.19,4.6c2.23,4.34,0.52,9.66-3.82,11.9c-4.34,2.23-9.66,0.51-11.89-3.82
				c-1.29-2.51-1.22-5.33-0.14-7.71c-5.22-3.83-10.45-7.67-15.68-11.51c-0.57,0.51-1.17,0.98-1.88,1.34
				c-4.34,2.23-9.67,0.52-11.89-3.82c-2.23-4.34-0.51-9.67,3.82-11.9C110.16,390.77,115.49,392.48,117.72,396.82z"/>
		</g>
	</g>
</g>
</svg>
