{
    "_id" : ObjectId("5f7d6232c6297010008b4568"),
    "type" : "blockCms",
    "path" : "tpls.blockCms.article.actualite",
    "name" : "Actualité",
    "developpeur" : "false",
    "img" : "",
    "description" : "",
    "parent" : "",
    "created" : NumberLong(1602052658),
    "creator" : "5f09a237c629700c008b4570"
}