{
    "_id" : ObjectId("5fa26a45f5100e13008b456b"),
    "type" : "blockCms",
    "path" : "tpls.blockCms.eywa.art",
    "name" : "Art",
    "developpeur" : "true",
    "img" : "",
    "description" : "",
    "parent" : "",
    "created" : NumberLong(1604479557),
    "creator" : "5f04be4313c2670d008b4570"
}