{
    "_id" : ObjectId("5f7b073ec629700d008b4592"),
    "type" : "blockCms",
    "path" : "tpls.blockCms.text.backgroundPhotoParallax",
    "name" : "background photo Parallax",
    "developpeur" : "false",
    "img" : "",
    "description" : "",
    "parent" : "",
    "created" : NumberLong(1601898302),
    "creator" : "5f09a237c629700c008b4570"
}