{
    "_id" : ObjectId("5f72e0bfc629700e008b457d"),
    "type" : "blockCms",
    "path" : "tpls.blockCms.news.basicnews",
    "name" : "News",
    "developpeur" : "false",
    "img" : "",
    "description" : "",
    "parent" : "",
    "created" : NumberLong(1601364159),
    "creator" : "5f09a237c629700c008b4570"
}