{
    "_id" : ObjectId("5f635dd8c6297015008b456d"),
    "type" : "blockCms",
    "path" : "tpls.blockCms.article.blockarticles",
    "name" : "Articles",
    "developpeur" : "false",
    "img" : "",
    "description" : "",
    "parent" : "",
    "created" : NumberLong(1600347608),
    "creator" : "5f09a237c629700c008b4570"
}