{
    "_id" : ObjectId("601156d2baabc5060e8b45ef"),
    "type" : "blockCms",
    "path" : "tpls.blockCms.textImg.blocimgrightcustom",
    "name" : "Bloc avec image à droite arrondi",
    "description" : "Bloc avec image à droite arrondi",
    "collection" : "cms",
    "updated" : NumberLong(1611749749),
    "creator" : "5f09a237c629700c008b4570",
    "created" : NumberLong(1611749093)
}