{
    "_id" : ObjectId("5f994f91f5100e0e008b456a"),
    "type" : "blockCms",
    "path" : "tpls.blockCms.textImg.blockIllustrationAndDescriptionRightLeft",
    "name" : "Illustration et Déscription",
    "developpeur" : "true",
    "img" : "",
    "description" : "",
    "parent" : "",
    "created" : NumberLong(1603882897),
    "creator" : "5f04be4313c2670d008b4570"
}