{
    "_id" : ObjectId("6011532fbaabc5344f8b458d"),
    "type" : "blockCms",
    "path" : "tpls.blockCms.textImg.blockwithimgleft",
    "name" : "Bloc avec image à gauche ",
    "description" : "Bloc avec image à gauche et texte à droite",
    "collection" : "cms",
    "updated" : NumberLong(1611748786),
    "creator" : "5f09a237c629700c008b4570",
    "created" : NumberLong(1611748196)
     }