{
    "_id" : ObjectId("60116554baabc5344f8b459d"),
    "type" : "blockCms",
    "path" : "tpls.blockCms.textImg.blocimgwithbottomtext",
    "name" : "bloc  image avec texte en bas",
    "collection" : "cms",
    "updated" : NumberLong(1611753466),
    "creator" : "5f09a237c629700c008b4570",
    "created" : NumberLong(1611752816),
    "description" : ""
}