{
    "_id" : ObjectId("5f72f29fc629700d008b457c"),
    "type" : "blockCms",
    "path" : "tpls.blockCms.textImg.blockwithimg",
    "name" : "block avec une image",
    "developpeur" : "false",
    "img" : "",
    "description" : "",
    "parent" : "",
    "created" : NumberLong(1601368735),
    "creator" : "5f09a237c629700c008b4570"
}