{
    "_id" : ObjectId("60115b36baabc5060e8b45f2"),
    "type" : "blockCms",
    "path" : "tpls.blockCms.textImg.blocimgroundleft",
    "name" : "image arrondi à gauche",
    "collection" : "cms",
    "updated" : NumberLong(1611751370),
    "creator" : "5f09a237c629700c008b4570",
    "created" : NumberLong(1611750230),
    "description" : ""
}