{
    "_id" : ObjectId("6012489fbaabc51d048b456b"),
    "type" : "blockCms",
    "path" : "tpls.blockCms.footer.footer1",
    "name" : "Footer",
    "collection" : "cms",
    "updated" : NumberLong(1611811170),
    "creator" : "5f09a237c629700c008b4570",
    "created" : NumberLong(1611810993),
    "description" : ""
}