{
    "_id" : ObjectId("6007c74e8b509c464f8b457c"),
    "type" : "blockCms",
    "path" : "tpls.blockCms.filiere.rejoindre",
    "name" : "rejoindre",
    "developpeur" : "false",
    "img" : "",
    "description" : "Bouton de joindre un filière avec image motivant à côté",
    "parent" : "",
    "created" : NumberLong(1611122510),
    "creator" : "5fb4fb408b509c94498b4597",
    "updated" : NumberLong(1611817749)
}