{
    "_id" : ObjectId("5fb61d34f5100e0d008b4569"),
    "type" : "blockCms",
    "path" : "tpls.blockCms.text.textWithTitle",
    "name" : "Titre et description",
    "developpeur" : "false",
    "img" : "",
    "description" : "",
    "parent" : "",
    "created" : NumberLong(1605770548),
    "creator" : "5f04be4313c2670d008b4570"
}