<?xml version="1.0" encoding="utf-8"?>
<!-- Generator: Adobe Illustrator 22.0.1, SVG Export Plug-In . SVG Version: 6.00 Build 0)  -->
<svg version="1.1" id="Calque_1" xmlns="http://www.w3.org/2000/svg" xmlns:xlink="http://www.w3.org/1999/xlink" x="0px" y="0px"
	 viewBox="0 0 207.5 213.9" style="enable-background:new 0 0 207.5 213.9;" xml:space="preserve">
<style type="text/css">
	.st0{fill:#FFFFFF;}
	.st1{fill:#06183A;}
</style>
<g>
	<polygon class="st0" points="115.5,77.9 88.8,77.9 75.4,101.1 88.8,124.2 115.5,124.2 128.9,101.1 	"/>
	<path class="st1" d="M91.7,100.2c0,0,0-0.1,0-0.1c0.2-0.5,0.6-0.8,1.1-0.8c0.9,0,1.7,0,2.6,0c3.5,0,7,0,10.5,0c0.1,0,0.2,0,0.3,0
		c-0.1-0.1-0.1-0.1-0.2-0.2c-1.3-1.3-2.7-2.6-4-4c-0.6-0.6-0.6-1.2,0-1.7c0.2-0.2,0.4-0.4,0.6-0.6c0.5-0.4,1.1-0.4,1.5,0
		c2.4,2.4,4.8,4.8,7.2,7.2c0.5,0.5,0.5,1.1,0,1.6c-2.4,2.4-4.8,4.8-7.2,7.2c-0.5,0.5-1.1,0.5-1.6,0c-0.2-0.2-0.4-0.4-0.6-0.6
		c-0.5-0.5-0.5-1.1,0-1.6c0.9-0.9,1.7-1.8,2.6-2.6c0.5-0.5,1-1,1.5-1.6c-0.1,0-0.1,0-0.2,0c-4.3,0-8.6,0-12.9,0
		c-0.8,0-1.1-0.2-1.3-0.9C91.7,101,91.7,100.6,91.7,100.2z"/>
</g>
</svg>
