<?xml version="1.0" encoding="utf-8"?>
<!-- Generator: Adobe Illustrator 22.0.1, SVG Export Plug-In . SVG Version: 6.00 Build 0)  -->
<svg version="1.1" id="Calque_1" xmlns="http://www.w3.org/2000/svg" xmlns:xlink="http://www.w3.org/1999/xlink" x="0px" y="0px"
	 viewBox="0 0 227.1 46" style="enable-background:new 0 0 227.1 46;" xml:space="preserve">
<style type="text/css">
	.st0{fill:#FFFFFF;}
	.st1{fill:#9AC21E;}
</style>
<g>
	<g>
		
			<image style="overflow:visible;opacity:0.29;" width="237" height="44" xlink:href="6666A9FD43F267C3.png"  transform="matrix(1 0 0 1 -2.0847 2.548)">
		</image>
		<g>
			<polygon class="st0" points="222.6,21.6 215.1,8.6 210.1,8.6 200.1,8.6 17.8,8.6 17.8,8.6 11.4,8.6 3.9,21.6 11.4,34.6 
				17.8,34.6 17.8,34.6 150.1,34.6 200.1,34.6 215.1,34.6 			"/>
		</g>
	</g>
	<g>
		<g>
			<path class="st1" d="M37.5,16.2v-2.5H20v13.7c0,0,0,2.5,2.5,2.5h15.6c0,0,1.9,0,1.9-2.5V16.2H37.5z M22.5,28.7
				c-1.2,0-1.2-1.2-1.2-1.2V14.9h15v12.5c0,0.6,0.2,1,0.4,1.2H22.5z"/>
			<rect x="22.5" y="17.4" class="st1" width="12.5" height="1.2"/>
			<rect x="29.4" y="24.9" class="st1" width="4.4" height="1.2"/>
			<rect x="29.4" y="22.4" class="st1" width="5.6" height="1.2"/>
			<rect x="29.4" y="19.9" class="st1" width="5.6" height="1.2"/>
			<rect x="22.5" y="19.9" class="st1" width="5.6" height="6.2"/>
		</g>
	</g>
</g>
</svg>
