    {
        "_id" : ObjectId("5d4cffb12f626620068b4567"),
        "contextId" : "5d0b6b7fa1d9f073798b4568",
        "contextType" : "organizations",
        "name" : "NATURELLES",
        "created" : NumberLong(1565327281),
        "updated" : NumberLong(1565327281),
        "docType" : "smarterre.commun"
    }
    {
        "_id" : ObjectId("5d4cffbd2f6266f3048b4567"),
        "contextId" : "5d0b6b7fa1d9f073798b4568",
        "contextType" : "organizations",
        "name" : "Terres, Potagers (urbains, partagés), semences, forêts,...",
        "created" : NumberLong(1565327293),
        "updated" : NumberLong(1565327293),
        "parentId" : "5d4cffb12f626620068b4567",
        "docType" : "smarterre.commun"
    }
    {
        "_id" : ObjectId("5d4cffc62f626605068b4567"),
        "contextId" : "5d0b6b7fa1d9f073798b4568",
        "contextType" : "organizations",
        "name" : "Poissons, ressources,...",
        "created" : NumberLong(1565327302),
        "updated" : NumberLong(1565327302),
        "parentId" : "5d4cffb12f626620068b4567",
        "docType" : "smarterre.commun"
    }
    {
        "_id" : ObjectId("5d4cffd12f626627068b4567"),
        "contextId" : "5d0b6b7fa1d9f073798b4568",
        "contextType" : "organizations",
        "name" : "Énergie libre (solaire, géothermie, éolien)",
        "created" : NumberLong(1565327313),
        "updated" : NumberLong(1565327313),
        "parentId" : "5d4cffb12f626620068b4567",
        "docType" : "smarterre.commun"
    }
    {
        "_id" : ObjectId("5d4d005a2f626605068b4568"),
        "contextId" : "5d0b6b7fa1d9f073798b4568",
        "contextType" : "organizations",
        "name" : "MATERIELLES",
        "created" : NumberLong(1565327450),
        "updated" : NumberLong(1565327450),
        "docType" : "smarterre.commun"
    }
    {
        "_id" : ObjectId("5d4d00632f626627068b4568"),
        "contextId" : "5d0b6b7fa1d9f073798b4568",
        "contextType" : "organizations",
        "name" : "Internet",
        "created" : NumberLong(1565327459),
        "updated" : NumberLong(1565327459),
        "parentId" : "5d4d005a2f626605068b4568",
        "docType" : "smarterre.commun"
    }
    {
        "_id" : ObjectId("5d4d006d2f626600068b4567"),
        "contextId" : "5d0b6b7fa1d9f073798b4568",
        "contextType" : "organizations",
        "name" : "Centre de santé",
        "created" : NumberLong(1565327469),
        "updated" : NumberLong(1565327469),
        "parentId" : "5d4d005a2f626605068b4568",
        "docType" : "smarterre.commun"
    }
    {
        "_id" : ObjectId("5d4d00762f6266f5048b4567"),
        "contextId" : "5d0b6b7fa1d9f073798b4568",
        "contextType" : "organizations",
        "name" : "Machines outils (FabLab, Bibliothèque d’outils )",
        "created" : NumberLong(1565327478),
        "updated" : NumberLong(1565327478),
        "parentId" : "5d4d005a2f626605068b4568",
        "docType" : "smarterre.commun"
    }
    {
        "_id" : ObjectId("5d4d007f2f626606068b4567"),
        "contextId" : "5d0b6b7fa1d9f073798b4568",
        "contextType" : "organizations",
        "name" : "AMAP , épicerie Coopérative, Disco Soupe",
        "created" : NumberLong(1565327487),
        "updated" : NumberLong(1565327487),
        "parentId" : "5d4d005a2f626605068b4568",
        "docType" : "smarterre.commun"
    }
    {
        "_id" : ObjectId("5d4d00872f626606068b4568"),
        "contextId" : "5d0b6b7fa1d9f073798b4568",
        "contextType" : "organizations",
        "name" : "Tiers Lieux Open Source",
        "created" : NumberLong(1565327495),
        "updated" : NumberLong(1565327495),
        "parentId" : "5d4d005a2f626605068b4568",
        "docType" : "smarterre.commun"
    }
    {
        "_id" : ObjectId("5d4d01e02f626627068b4569"),
        "contextId" : "5d0b6b7fa1d9f073798b4568",
        "contextType" : "organizations",
        "name" : "IMMATÉRIELLES (INTELLECTUELLES)",
        "created" : NumberLong(1565327840),
        "updated" : NumberLong(1565327840),
        "docType" : "smarterre.commun"
    }
    {
        "_id" : ObjectId("5d4d01ea2f626600068b4568"),
        "contextId" : "5d0b6b7fa1d9f073798b4568",
        "contextType" : "organizations",
        "name" : "La culture",
        "created" : NumberLong(1565327850),
        "updated" : NumberLong(1565327850),
        "parentId" : "5d4d01e02f626627068b4569",
        "docType" : "smarterre.commun"
    }
    {
        "_id" : ObjectId("5d4d01f32f6266f5048b4568"),
        "contextId" : "5d0b6b7fa1d9f073798b4568",
        "contextType" : "organizations",
        "name" : "Musique : les grands classiques",
        "created" : NumberLong(1565327859),
        "updated" : NumberLong(1565327859),
        "parentId" : "5d4d01ea2f626600068b4568",
        "docType" : "smarterre.commun"
    }
    {
        "_id" : ObjectId("5d4d01fa2f626606068b4569"),
        "contextId" : "5d0b6b7fa1d9f073798b4568",
        "contextType" : "organizations",
        "name" : "Livres, BD",
        "created" : NumberLong(1565327866),
        "updated" : NumberLong(1565327866),
        "parentId" : "5d4d01ea2f626600068b4568",
        "docType" : "smarterre.commun"
    }
    {
        "_id" : ObjectId("5d4d02022f62661e068b4567"),
        "contextId" : "5d0b6b7fa1d9f073798b4568",
        "contextType" : "organizations",
        "name" : "Art libre",
        "created" : NumberLong(1565327874),
        "updated" : NumberLong(1565327874),
        "parentId" : "5d4d01ea2f626600068b4568",
        "docType" : "smarterre.commun"
    }
    {
        "_id" : ObjectId("5d4d020c2f626608068b4567"),
        "contextId" : "5d0b6b7fa1d9f073798b4568",
        "contextType" : "organizations",
        "name" : "Les savoirs-faire",
        "created" : NumberLong(1565327884),
        "updated" : NumberLong(1565327884),
        "parentId" : "5d4d01e02f626627068b4569",
        "docType" : "smarterre.commun"
    }
    {
        "_id" : ObjectId("5d4d02152f626620068b4568"),
        "contextId" : "5d0b6b7fa1d9f073798b4568",
        "contextType" : "organizations",
        "name" : "Un Logiciel Libre (Open Source)",
        "created" : NumberLong(1565327893),
        "updated" : NumberLong(1565327893),
        "parentId" : "5d4d020c2f626608068b4567",
        "docType" : "smarterre.commun"
    }
    {
        "_id" : ObjectId("5d4d02212f626603068b4567"),
        "contextId" : "5d0b6b7fa1d9f073798b4568",
        "contextType" : "organizations",
        "name" : "Une recette de cuisine",
        "created" : NumberLong(1565327905),
        "updated" : NumberLong(1565327905),
        "parentId" : "5d4d020c2f626608068b4567",
        "docType" : "smarterre.commun"
    }
    {
        "_id" : ObjectId("5d4d022a2f6266f3048b4568"),
        "contextId" : "5d0b6b7fa1d9f073798b4568",
        "contextType" : "organizations",
        "name" : "Un repair café",
        "created" : NumberLong(1565327914),
        "updated" : NumberLong(1565327914),
        "parentId" : "5d4d020c2f626608068b4567",
        "docType" : "smarterre.commun"
    }
    {
        "_id" : ObjectId("5d4d023a2f626605068b4569"),
        "contextId" : "5d0b6b7fa1d9f073798b4568",
        "contextType" : "organizations",
        "name" : "Les connaissances et les données",
        "created" : NumberLong(1565327930),
        "updated" : NumberLong(1565327930),
        "parentId" : "5d4d01e02f626627068b4569",
        "docType" : "smarterre.commun"
    }
    {
        "_id" : ObjectId("5d4d02432f626600068b4569"),
        "contextId" : "5d0b6b7fa1d9f073798b4568",
        "contextType" : "organizations",
        "name" : "Sciences Ouvertes (un code génétique, des résultats de recherche,...)",
        "created" : NumberLong(1565327939),
        "updated" : NumberLong(1565327939),
        "parentId" : "5d4d023a2f626605068b4569",
        "docType" : "smarterre.commun"
    }
    {
        "_id" : ObjectId("5d4d024b2f6266f5048b4569"),
        "contextId" : "5d0b6b7fa1d9f073798b4568",
        "contextType" : "organizations",
        "name" : "Wikipédia",
        "created" : NumberLong(1565327947),
        "updated" : NumberLong(1565327947),
        "parentId" : "5d4d023a2f626605068b4569",
        "docType" : "smarterre.commun"
    }
    {
        "_id" : ObjectId("5d4d02532f626606068b456a"),
        "contextId" : "5d0b6b7fa1d9f073798b4568",
        "contextType" : "organizations",
        "name" : "Open Street Maps",
        "created" : NumberLong(1565327955),
        "updated" : NumberLong(1565327955),
        "parentId" : "5d4d023a2f626605068b4569",
        "docType" : "smarterre.commun"
    }
    {
        "_id" : ObjectId("5d4d025a2f62661e068b4568"),
        "contextId" : "5d0b6b7fa1d9f073798b4568",
        "contextType" : "organizations",
        "name" : "OpenFoodFact",
        "created" : NumberLong(1565327962),
        "updated" : NumberLong(1565327962),
        "parentId" : "5d4d023a2f626605068b4569",
        "docType" : "smarterre.commun"
    }
    {
        "_id" : ObjectId("5d4d02df2f6266f3048b4569"),
        "contextId" : "5d0b6b7fa1d9f073798b4568",
        "contextType" : "organizations",
        "name" : "Communauté",
        "created" : NumberLong(1565328095),
        "updated" : NumberLong(1565328095),
        "docType" : "smarterre.commun"
    }
    {
        "_id" : ObjectId("5d4d02ed2f626627068b456a"),
        "contextId" : "5d0b6b7fa1d9f073798b4568",
        "contextType" : "organizations",
        "name" : "Groupe de personnes solidaires, liées par une responsabilité commune, des intérêts communs",
        "created" : NumberLong(1565328109),
        "updated" : NumberLong(1565328109),
        "parentId" : "5d4d02df2f6266f3048b4569",
        "docType" : "smarterre.commun"
    }
    {
        "_id" : ObjectId("5d4d02f62f626605068b456a"),
        "contextId" : "5d0b6b7fa1d9f073798b4568",
        "contextType" : "organizations",
        "name" : "Petite ou grande, en fonction du commun",
        "created" : NumberLong(1565328118),
        "updated" : NumberLong(1565328118),
        "parentId" : "5d4d02df2f6266f3048b4569",
        "docType" : "smarterre.commun"
    }
    {
        "_id" : ObjectId("5d4d02ff2f626600068b456a"),
        "contextId" : "5d0b6b7fa1d9f073798b4568",
        "contextType" : "organizations",
        "name" : "Locale, internationale en fonction des besoins",
        "created" : NumberLong(1565328127),
        "updated" : NumberLong(1565328127),
        "parentId" : "5d4d02df2f6266f3048b4569",
        "docType" : "smarterre.commun"
    }
    {
        "_id" : ObjectId("5d4d032f2f6266f5048b456a"),
        "contextId" : "5d0b6b7fa1d9f073798b4568",
        "contextType" : "organizations",
        "name" : "Gouvernance",
        "created" : NumberLong(1565328175),
        "updated" : NumberLong(1565328175),
        "docType" : "smarterre.commun"
    }
    {
        "_id" : ObjectId("5d4d03392f626606068b456b"),
        "contextId" : "5d0b6b7fa1d9f073798b4568",
        "contextType" : "organizations",
        "name" : "La communauté choisit son mode de gouvernance",
        "created" : NumberLong(1565328185),
        "updated" : NumberLong(1565328185),
        "parentId" : "5d4d032f2f6266f5048b456a",
        "docType" : "smarterre.commun"
    }
    {
        "_id" : ObjectId("5d4d03412f62661e068b4569"),
        "contextId" : "5d0b6b7fa1d9f073798b4568",
        "contextType" : "organizations",
        "name" : "Holacratie, doocratie, sociocratie, démocratie directe... selon les besoins du commun",
        "created" : NumberLong(1565328193),
        "updated" : NumberLong(1565328193),
        "parentId" : "5d4d032f2f6266f5048b456a",
        "docType" : "smarterre.commun"
    }
    {
        "_id" : ObjectId("5d4d034e2f626620068b4569"),
        "contextId" : "5d0b6b7fa1d9f073798b4568",
        "contextType" : "organizations",
        "name" : "Les règles d'utilisation, de gestion, de protection, de contribution et d'accès au commun sont définies par la communauté",
        "created" : NumberLong(1565328206),
        "updated" : NumberLong(1565328206),
        "parentId" : "5d4d032f2f6266f5048b456a",
        "docType" : "smarterre.commun"
    }
    {
        "_id" : ObjectId("5d4d03572f626608068b4568"),
        "contextId" : "5d0b6b7fa1d9f073798b4568",
        "contextType" : "organizations",
        "name" : "Avoir un “Code Social” Ouvert et Transparent",
        "created" : NumberLong(1565328215),
        "updated" : NumberLong(1565328215),
        "parentId" : "5d4d032f2f6266f5048b456a",
        "docType" : "smarterre.commun"
    }
    {
        "_id" : ObjectId("5d4d03602f626603068b4568"),
        "contextId" : "5d0b6b7fa1d9f073798b4568",
        "contextType" : "organizations",
        "name" : "Economie",
        "created" : NumberLong(1565328224),
        "updated" : NumberLong(1565328224),
        "docType" : "smarterre.commun"
    }
    {
        "_id" : ObjectId("5d4d036a2f626627068b456b"),
        "contextId" : "5d0b6b7fa1d9f073798b4568",
        "contextType" : "organizations",
        "name" : "Des contributions rétribuées",
        "created" : NumberLong(1565328234),
        "updated" : NumberLong(1565328234),
        "parentId" : "5d4d03602f626603068b4568",
        "docType" : "smarterre.commun"
    }
    {
        "_id" : ObjectId("5d4d03732f626605068b456b"),
        "contextId" : "5d0b6b7fa1d9f073798b4568",
        "contextType" : "organizations",
        "name" : "Des échanges basés sur la réciprocité",
        "created" : NumberLong(1565328243),
        "updated" : NumberLong(1565328243),
        "parentId" : "5d4d03602f626603068b4568",
        "docType" : "smarterre.commun"
    }
    {
        "_id" : ObjectId("5d4d037f2f626605068b456c"),
        "contextId" : "5d0b6b7fa1d9f073798b4568",
        "contextType" : "organizations",
        "name" : "Participer",
        "created" : NumberLong(1565328255),
        "updated" : NumberLong(1565328255),
        "docType" : "smarterre.commun"
    }
    {
        "_id" : ObjectId("5d4d03892f626600068b456b"),
        "contextId" : "5d0b6b7fa1d9f073798b4568",
        "contextType" : "organizations",
        "name" : "Créer des assemblées d'acteurs des communs",
        "created" : NumberLong(1565328265),
        "updated" : NumberLong(1565328265),
        "parentId" : "5d4d037f2f626605068b456c",
        "docType" : "smarterre.commun"
    }
    {
        "_id" : ObjectId("5d4d03912f6266f5048b456b"),
        "contextId" : "5d0b6b7fa1d9f073798b4568",
        "contextType" : "organizations",
        "name" : "Mettre en lumière leur existence",
        "created" : NumberLong(1565328273),
        "updated" : NumberLong(1565328273),
        "parentId" : "5d4d037f2f626605068b456c",
        "docType" : "smarterre.commun"
    }
    {
        "_id" : ObjectId("5d4d039a2f626606068b456c"),
        "contextId" : "5d0b6b7fa1d9f073798b4568",
        "contextType" : "organizations",
        "name" : "Préserver des ”enclosures” et autres modes d'accaparement",
        "created" : NumberLong(1565328282),
        "updated" : NumberLong(1565328282),
        "parentId" : "5d4d037f2f626605068b456c",
        "docType" : "smarterre.commun"
    }
    {
        "_id" : ObjectId("5d4d03a32f626606068b456d"),
        "contextId" : "5d0b6b7fa1d9f073798b4568",
        "contextType" : "organizations",
        "name" : "Faire société, participer à la gestion de sa commune",
        "created" : NumberLong(1565328291),
        "updated" : NumberLong(1565328291),
        "parentId" : "5d4d037f2f626605068b456c",
        "docType" : "smarterre.commun"
    }