    {
        "_id" : ObjectId("5d4d1bd52f626635078b456e"),
        "contextId" : "5d0b6b7fa1d9f073798b4568",
        "contextType" : "organizations",
        "name" : "L'argent comme un moyen non comme un but",
        "created" : NumberLong(1565334485),
        "updated" : NumberLong(1565334485),
        "docType" : "smarterre.economie"
    }
    {
        "_id" : ObjectId("5d4d1bdc2f626634078b4570"),
        "contextId" : "5d0b6b7fa1d9f073798b4568",
        "contextType" : "organizations",
        "name" : "Entreprise sociale et solidaire",
        "created" : NumberLong(1565334492),
        "updated" : NumberLong(1565334492),
        "parentId" : "5d4d1bd52f626635078b456e",
        "docType" : "smarterre.economie"
    }
    {
        "_id" : ObjectId("5d4d1bec2f626627068b4578"),
        "contextId" : "5d0b6b7fa1d9f073798b4568",
        "contextType" : "organizations",
        "name" : "Monnaie locale",
        "created" : NumberLong(1565334508),
        "updated" : NumberLong(1565334508),
        "parentId" : "5d4d1bd52f626635078b456e",
        "docType" : "smarterre.economie"
    }
    {
        "_id" : ObjectId("5d4d1bf62f62662b088b4567"),
        "contextId" : "5d0b6b7fa1d9f073798b4568",
        "contextType" : "organizations",
        "name" : "Financement Participatif",
        "created" : NumberLong(1565334518),
        "updated" : NumberLong(1565334518),
        "parentId" : "5d4d1bd52f626635078b456e",
        "docType" : "smarterre.economie"
    }
    {
        "_id" : ObjectId("5d4d1c152f6266b1078b456c"),
        "contextId" : "5d0b6b7fa1d9f073798b4568",
        "contextType" : "organizations",
        "name" : "Banque coopérative (La Nef)",
        "created" : NumberLong(1565334549),
        "updated" : NumberLong(1565334549),
        "parentId" : "5d4d1bd52f626635078b456e",
        "docType" : "smarterre.economie"
    }
    {
        "_id" : ObjectId("5d4d1c2e2f6266f3048b4579"),
        "contextId" : "5d0b6b7fa1d9f073798b4568",
        "contextType" : "organizations",
        "name" : "Rémunération innovante : Liberapay, Gratipay",
        "created" : NumberLong(1565334574),
        "updated" : NumberLong(1565334574),
        "parentId" : "5d4d1bd52f626635078b456e",
        "docType" : "smarterre.economie"
    }
    {
        "_id" : ObjectId("5d4d1e802f62662d088b4567"),
        "contextId" : "5d0b6b7fa1d9f073798b4568",
        "contextType" : "organizations",
        "name" : "Les communs",
        "created" : NumberLong(1565335168),
        "updated" : NumberLong(1565335168),
        "docType" : "smarterre.economie"
    }
    {
        "_id" : ObjectId("5d4d1e892f6266b6078b456b"),
        "contextId" : "5d0b6b7fa1d9f073798b4568",
        "contextType" : "organizations",
        "name" : "L'économie du partage et pas le partage l'économie",
        "created" : NumberLong(1565335177),
        "updated" : NumberLong(1565335177),
        "parentId" : "5d4d1e802f62662d088b4567",
        "docType" : "smarterre.economie"
    }
    {
        "_id" : ObjectId("5d4d1e922f6266b3078b456d"),
        "contextId" : "5d0b6b7fa1d9f073798b4568",
        "contextType" : "organizations",
        "name" : "Repenser le travail",
        "created" : NumberLong(1565335186),
        "updated" : NumberLong(1565335186),
        "docType" : "smarterre.economie"
    }
    {
        "_id" : ObjectId("5d4d1e992f626634078b4571"),
        "contextId" : "5d0b6b7fa1d9f073798b4568",
        "contextType" : "organizations",
        "name" : "L'humain est une richesse par une ressource",
        "created" : NumberLong(1565335193),
        "updated" : NumberLong(1565335193),
        "parentId" : "5d4d1e922f6266b3078b456d",
        "docType" : "smarterre.economie"
    }
    {
        "_id" : ObjectId("5d4d1eac2f626627068b4579"),
        "contextId" : "5d0b6b7fa1d9f073798b4568",
        "contextType" : "organizations",
        "name" : "Dissocier travail et revenu (revenu de base)",
        "created" : NumberLong(1565335212),
        "updated" : NumberLong(1565335212),
        "parentId" : "5d4d1e922f6266b3078b456d",
        "docType" : "smarterre.economie"
    }
    {
        "_id" : ObjectId("5d4d1eb52f626635078b456f"),
        "contextId" : "5d0b6b7fa1d9f073798b4568",
        "contextType" : "organizations",
        "name" : "Garantir à tous les besoins vitaux (se nourrir, se loger, se vêtir)",
        "created" : NumberLong(1565335221),
        "updated" : NumberLong(1565335221),
        "parentId" : "5d4d1e922f6266b3078b456d",
        "docType" : "smarterre.economie"
    }
    {
        "_id" : ObjectId("5d4d1ebe2f62662b088b4568"),
        "contextId" : "5d0b6b7fa1d9f073798b4568",
        "contextType" : "organizations",
        "name" : "Apprendre à se connaître avant de travailler et se sousmettre",
        "created" : NumberLong(1565335230),
        "updated" : NumberLong(1565335230),
        "parentId" : "5d4d1e922f6266b3078b456d",
        "docType" : "smarterre.economie"
    }
    {
        "_id" : ObjectId("5d4d1ec62f62662b088b4569"),
        "contextId" : "5d0b6b7fa1d9f073798b4568",
        "contextType" : "organizations",
        "name" : "Inventons le travail de demain",
        "created" : NumberLong(1565335238),
        "updated" : NumberLong(1565335238),
        "parentId" : "5d4d1e922f6266b3078b456d",
        "docType" : "smarterre.economie"
    }
    {
        "_id" : ObjectId("5d4d1ed22f6266f3048b457a"),
        "contextId" : "5d0b6b7fa1d9f073798b4568",
        "contextType" : "organizations",
        "name" : "Economie respectueuse",
        "created" : NumberLong(1565335250),
        "updated" : NumberLong(1565335250),
        "docType" : "smarterre.economie"
    }
    {
        "_id" : ObjectId("5d4d1ed92f62662c078b4570"),
        "contextId" : "5d0b6b7fa1d9f073798b4568",
        "contextType" : "organizations",
        "name" : "Répartition équitable des richesses",
        "created" : NumberLong(1565335257),
        "updated" : NumberLong(1565335257),
        "parentId" : "5d4d1ed22f6266f3048b457a",
        "docType" : "smarterre.economie"
    }
    {
        "_id" : ObjectId("5d4d1ee22f6266b1078b456d"),
        "contextId" : "5d0b6b7fa1d9f073798b4568",
        "contextType" : "organizations",
        "name" : "Economie circulaire",
        "created" : NumberLong(1565335266),
        "updated" : NumberLong(1565335266),
        "parentId" : "5d4d1ed22f6266f3048b457a",
        "docType" : "smarterre.economie"
    }
    {
        "_id" : ObjectId("5d4d1eea2f6266b1078b456e"),
        "contextId" : "5d0b6b7fa1d9f073798b4568",
        "contextType" : "organizations",
        "name" : "Consommation locale",
        "created" : NumberLong(1565335274),
        "updated" : NumberLong(1565335274),
        "parentId" : "5d4d1ed22f6266f3048b457a",
        "docType" : "smarterre.economie"
    }
    {
        "_id" : ObjectId("5d4d1ef42f62662d088b4568"),
        "contextId" : "5d0b6b7fa1d9f073798b4568",
        "contextType" : "organizations",
        "name" : "Ressources",
        "created" : NumberLong(1565335284),
        "updated" : NumberLong(1565335284),
        "docType" : "smarterre.economie"
    }
    {
        "_id" : ObjectId("5d4d1efb2f6266b6078b456c"),
        "contextId" : "5d0b6b7fa1d9f073798b4568",
        "contextType" : "organizations",
        "name" : "Biomimétisme : S'inspirer de la nature plutôt que la consumer",
        "created" : NumberLong(1565335291),
        "updated" : NumberLong(1565335291),
        "parentId" : "5d4d1ef42f62662d088b4568",
        "docType" : "smarterre.economie"
    }
    {
        "_id" : ObjectId("5d4d1f042f6266b3078b456e"),
        "contextId" : "5d0b6b7fa1d9f073798b4568",
        "contextType" : "organizations",
        "name" : "Le Soleil : une ressource inépuisable",
        "created" : NumberLong(1565335300),
        "updated" : NumberLong(1565335300),
        "parentId" : "5d4d1ef42f62662d088b4568",
        "docType" : "smarterre.economie"
    }
    {
        "_id" : ObjectId("5d4d1f132f626634078b4572"),
        "contextId" : "5d0b6b7fa1d9f073798b4568",
        "contextType" : "organizations",
        "name" : "La Nature , un système de production perpétuel auto respectueux",
        "created" : NumberLong(1565335315),
        "updated" : NumberLong(1565335315),
        "parentId" : "5d4d1ef42f62662d088b4568",
        "docType" : "smarterre.economie"
    }
    {
        "_id" : ObjectId("5d4d1f202f626635078b4570"),
        "contextId" : "5d0b6b7fa1d9f073798b4568",
        "contextType" : "organizations",
        "name" : "Open Source : accès Libre au savoir et la création",
        "created" : NumberLong(1565335328),
        "updated" : NumberLong(1565335328),
        "parentId" : "5d4d1ef42f62662d088b4568",
        "docType" : "smarterre.economie"
    }
    {
        "_id" : ObjectId("5d4d1f2a2f62662b088b456a"),
        "contextId" : "5d0b6b7fa1d9f073798b4568",
        "contextType" : "organizations",
        "name" : "Homme abuse de ses droits naturel",
        "created" : NumberLong(1565335338),
        "updated" : NumberLong(1565335338),
        "parentId" : "5d4d1ef42f62662d088b4568",
        "docType" : "smarterre.economie"
    }
    {
        "_id" : ObjectId("5d4d1f322f6266f3048b457b"),
        "contextId" : "5d0b6b7fa1d9f073798b4568",
        "contextType" : "organizations",
        "name" : "Gouvernance",
        "created" : NumberLong(1565335346),
        "updated" : NumberLong(1565335346),
        "docType" : "smarterre.economie"
    }
    {
        "_id" : ObjectId("5d4d1f3b2f62662c078b4571"),
        "contextId" : "5d0b6b7fa1d9f073798b4568",
        "contextType" : "organizations",
        "name" : "Open Système, Horizontalité et transparence",
        "created" : NumberLong(1565335355),
        "updated" : NumberLong(1565335355),
        "parentId" : "5d4d1f322f6266f3048b457b",
        "docType" : "smarterre.economie"
    }
    {
        "_id" : ObjectId("5d4d1f412f62662c078b4572"),
        "contextId" : "5d0b6b7fa1d9f073798b4568",
        "contextType" : "organizations",
        "name" : "Sociacratie",
        "created" : NumberLong(1565335361),
        "updated" : NumberLong(1565335361),
        "parentId" : "5d4d1f322f6266f3048b457b",
        "docType" : "smarterre.economie"
    }
    {
        "_id" : ObjectId("5d4d1f492f62662c078b4573"),
        "contextId" : "5d0b6b7fa1d9f073798b4568",
        "contextType" : "organizations",
        "name" : "Communalisme, écologie radical",
        "created" : NumberLong(1565335369),
        "updated" : NumberLong(1565335369),
        "parentId" : "5d4d1f322f6266f3048b457b",
        "docType" : "smarterre.economie"
    }
    {
        "_id" : ObjectId("5d4d1f4f2f62662c078b4574"),
        "contextId" : "5d0b6b7fa1d9f073798b4568",
        "contextType" : "organizations",
        "name" : "Explorer et experimenter",
        "created" : NumberLong(1565335375),
        "updated" : NumberLong(1565335375),
        "parentId" : "5d4d1f322f6266f3048b457b",
        "docType" : "smarterre.economie"
    }
    {
        "_id" : ObjectId("5d4d1f5b2f6266b1078b456f"),
        "contextId" : "5d0b6b7fa1d9f073798b4568",
        "contextType" : "organizations",
        "name" : "Changeons le Système pas le Climat",
        "created" : NumberLong(1565335387),
        "updated" : NumberLong(1565335387),
        "parentId" : "5d4d1f322f6266f3048b457b",
        "docType" : "smarterre.economie"
    }
    {
        "_id" : ObjectId("5d4d1f752f62662d088b4569"),
        "contextId" : "5d0b6b7fa1d9f073798b4568",
        "contextType" : "organizations",
        "name" : "Education",
        "created" : NumberLong(1565335413),
        "updated" : NumberLong(1565335413),
        "docType" : "smarterre.economie"
    }
    {
        "_id" : ObjectId("5d4d1f7b2f6266b6078b456d"),
        "contextId" : "5d0b6b7fa1d9f073798b4568",
        "contextType" : "organizations",
        "name" : "Formation sur les pratiques de l'économie circulaire",
        "created" : NumberLong(1565335419),
        "updated" : NumberLong(1565335419),
        "parentId" : "5d4d1f752f62662d088b4569",
        "docType" : "smarterre.economie"
    }
    {
        "_id" : ObjectId("5d4d1f852f6266b3078b456f"),
        "contextId" : "5d0b6b7fa1d9f073798b4568",
        "contextType" : "organizations",
        "name" : "Apprentisage des outils numériques et citoyens",
        "created" : NumberLong(1565335429),
        "updated" : NumberLong(1565335429),
        "parentId" : "5d4d1f752f62662d088b4569",
        "docType" : "smarterre.economie"
    }
    {
        "_id" : ObjectId("5d4d1f922f626627068b457a"),
        "contextId" : "5d0b6b7fa1d9f073798b4568",
        "contextType" : "organizations",
        "name" : "Utilisation et philosophie du Libre et Partage (Logiciel Libre, Wikipédia)",
        "created" : NumberLong(1565335442),
        "updated" : NumberLong(1565335442),
        "parentId" : "5d4d1f752f62662d088b4569",
        "docType" : "smarterre.economie"
    }